<?xml version="1.0" encoding="UTF-8" standalone="no"?>
<!-- Created with Inkscape (http://www.inkscape.org/) -->

<svg
   xmlns:dc="http://purl.org/dc/elements/1.1/"
   xmlns:cc="http://creativecommons.org/ns#"
   xmlns:rdf="http://www.w3.org/1999/02/22-rdf-syntax-ns#"
   xmlns:svg="http://www.w3.org/2000/svg"
   xmlns="http://www.w3.org/2000/svg"
   xmlns:xlink="http://www.w3.org/1999/xlink"
   xmlns:sodipodi="http://sodipodi.sourceforge.net/DTD/sodipodi-0.dtd"
   xmlns:inkscape="http://www.inkscape.org/namespaces/inkscape"
   version="1.1"
   id="svg2"
   width="1546"
   height="736"
   viewBox="0 0 1546 736"
   sodipodi:docname="bg-banner-11.svg"
   inkscape:version="0.92.4 (unknown)">
  <metadata
     id="metadata8">
    <rdf:RDF>
      <cc:Work
         rdf:about="">
        <dc:format>image/svg+xml</dc:format>
        <dc:type
           rdf:resource="http://purl.org/dc/dcmitype/StillImage" />
        <dc:title />
      </cc:Work>
    </rdf:RDF>
  </metadata>
  <defs
     id="defs6">
    <filter
       style="color-interpolation-filters:sRGB;"
       inkscape:label="Lighting"
       id="filter55">
      <feComponentTransfer
         in="blur"
         result="component"
         id="feComponentTransfer53">
        <feFuncR
           type="gamma"
           amplitude="1.3"
           exponent="1"
           offset="0"
           id="feFuncR47" />
        <feFuncG
           type="gamma"
           amplitude="1.3"
           exponent="1"
           offset="0"
           id="feFuncG49" />
        <feFuncB
           type="gamma"
           amplitude="1.3"
           exponent="1"
           offset="0"
           id="feFuncB51" />
      </feComponentTransfer>
    </filter>
  </defs>
  <sodipodi:namedview
     pagecolor="#ffffff"
     bordercolor="#666666"
     borderopacity="1"
     objecttolerance="10"
     gridtolerance="10"
     guidetolerance="10"
     inkscape:pageopacity="0"
     inkscape:pageshadow="2"
     inkscape:window-width="1920"
     inkscape:window-height="1015"
     id="namedview4"
     showgrid="false"
     inkscape:zoom="0.50677511"
     inkscape:cx="697.36347"
     inkscape:cy="416.1064"
     inkscape:window-x="0"
     inkscape:window-y="0"
     inkscape:window-maximized="1"
     inkscape:current-layer="svg2" />
  <image
     width="1546"
     height="736"
     preserveAspectRatio="none"
     style="image-rendering:optimizeQuality;filter:url(#filter55)"
     xlink:href="data:image/png;base64,iVBORw0KGgoAAAANSUhEUgAABgoAAALgCAYAAABFxywzAAAMqXpUWHRSYXcgcHJvZmlsZSB0eXBl IGV4aWYAAHjarZlpdmO7DYT/cxVZAidwWA5JgOdkB1l+PlzJbbtf9+skJ1JbV6avOKCAqoI62L/+ ecM/eJRcW6jSR5utRR511pkXb0Z8PV7XFOvz+nqs2N6j38aDxZifd5mhwrW8/tDsdU2Lcfn8QK/v 8f19PPTzepPHe6KPlV/Tx+Ir+3t9b/I9Ucmv8fT+Pcz3B1b7cpz3Tz7vad+T//x77QRDhflKDtlK KvF5za+VCrsosyyu/ppL9xt5+vvGayrlr/EL732kXwWwzx/H/Ba/+LGz8hmO10Qfx2o/xek9nuSn 8fJj+fxtRym/b8mff/DHlLjj18eX+N2r4157nW55Hs3a3of6OOLzjhuZpL6i0Xh2foT3/XlOnoOc OqCmHHUH1jxppkzEb6pJ00o32XM96bDFmi0T7pzzyeUZG4R/5vOAUv2Zbu4BZLQM8DggVxjOP/aS nnWnr8dig5U1cWdOTJYeHL88w88D/+vz20T3epqn5MEE+vQCOHt+sQ1Hzl+5C0DSfcdUnvim8LrE nx8ObAFBecI8OOCK+zXFlvSZW+XBuUQJ3Frjq15S1/cEhIi1hc2kAgKxpSKppdhz7ikRxwE+i53n UvMGgSRBsrLLXEtpgDOyr81nenruzZJfw9ALQAgl0oGG0gGsWqU26m2QQitIkSoiTboMmbJaabVJ a60356nVS69deuu9jz77GmXUIaONPsaYY808CzQmYbbZ55hzrsWiqy7mWty/GNh5l1237Lb7Hnvu dUifU4+cdvoZZ56lWYtCAUGbdh06dVkyUsmqiTXrNmzauuTaLbdeue32O+686wdqb1S/o/Yzcn+P Wnqjlh+g/L7+iRrDvX9MkZxOxDEDsVwTiHdHgITOjlkcqdbsyDlmceYSSpHMLsXB0eSIgWC1lOWm H9h9Ivdb3ALR/W9xy79CLjh0/w/kgkP3Bbm/4vYL1HQ9dFsegLwKiSkMWSi/m1cnPmfUls+eFmca uV+0RYul0eoes9YObfVeEKa1a1Y7VmIr02zuE6wxs6bMzdX61NM3xDbnPX0JMa6b0spTkhQ9supG OV1FFERzalLLlHZXCtemtsXSk6iw5ZXHynNQsVVc/P5wTcQxnz5nsDrLzssKobgcEvgUBG2McjnK vEJMDTCn3KKETWzvm4u1XeLslHoWI9FCX2dBs6mb9ZFIiy0zdRJgbRt5n7uWnXVaAWs16XaKCoEi tltlP1qPIVhhoA229A4BmtNzX9NmTSTE65Qkw+vNiL+7loFSh91nOzvK2FQUyNtmsthqrpM00XtE WeuiK1Vb2+y+mSQlc0cnDICb5yZdQ1bJxsZv43Cqw+USl1TiAbxINgHdTHJ7W+TYjdP2zDodvj4m iUcZugAF6qilPQiUlpZMCVUsmtc4dtM+kwool8xNlxJpYGtGqKmERCUMoCCRcps7VK3tmB2Ctjrb prhPXXmbVBhqb2pS7tKS13ML/+Ivr+HrgB5N/VrRVi8Fcd3nUUjrbE1p385s193OXdKW9ENIvGw8 F0pI1BwlTGAwQvWMoraFQs26mRI62dX2sbX3uBiCuLOSC+0AdlkjHaDbM9oN9clQcQ/391cYpGxK LTtLAuk9ywl3ej3mGYNUF3cECn2g7Cf2gX9k2rpDSb6eDtRw+0rmkPRSUnfNcu/EfiLg42qofuVF 78RCAmS9g+QdYycQoCLhBCOjS/XVxVEATda9GBDrxfUM+XR/ZYFBlpNhtY9V2VH03KN6LlS6YYym aC3UOvl1lE0ORGzLOOq24BO28A1HJCqR1JtqrV0nUbljOHpX5tK9DLaydnM2K52MnSeBYKe4LCRr GDw4Oz9VO6Hw929jNqo9WyrgCJMvsuI03blCQMj3UiFTRI/1U6BaRMLYPXUWC/1ETvafk5HJeRId Wg8bm4Y2zSfVq2ef4N58+xjqSu5QtITNKxk/N2yQhJzewcZLth0zTIa2hdU+0ZUyp84zsh0Z7l6R CHwrvATGhCDTPxA8NNYivHcWTMomJKMpAbqnPkXqTrpAA5gqyfBKwjypU4+YA39VY8UBTQLBZ9EL zpdLOSCeV/DMoHwXsMAGVD9ZC422KZiqu50eCZ6IeY0v72wGzpb9V+7VXVozQlRmUMSngEvV1dGe XbrVxs6M7d3ZgSuW9ruq36siV6xX8UfE9O4Dn++uoFZQZ4p3r7vRn6bI/tnd4t3JTtuzpE2KPeKK kieyYvTNgQg2WVJWWlpHuuc4d8NLUZuoINgTrmwlUydnLEoJITewJO5MRp67jJQ5ToBL68UYRIoL OmNS7aAlE7muQnxfOTPaH9ghQA8N2IW2oGznderjpHIQeYm2khz2Hg3E03Q/cyeUvA0+k/No6TmL dU4oox06leFcr08lYhciZgHKBfqBvMOCmCE0ZxkZS0GieijLoEImSp88W5jI7T5eCWKmNYEey1oe dPg1jdE6lY/vgAaviJdvl73Gxa8cZKVOEFL4AMdG7BYNO/FECsmQqzRDU/VK7AuyRbLAiYOUoWq8 NF2VXTQM3sbIk45olqH9FEjxItB2m7M+rZPSBu+H6jMSxumoooKOeqOGMiyoUw5hmDA4nRKOaFNr Q7FllyKCDTNz23By7yjwou4ysSa5XBTmcLuucZAB6+hmLoiiRiBvQwO8tUhgPXHeBjcihLB04WSb hMZwkY/QA1EVjGpzxZoQFz3JcG61tjCPFEUgn54qxNf+VkAaMegdczsO/WS/kDIaf9uQNt3rIh4E O6NLcENzzViYMLTKx/DnCbndu3r3iaJT/pQN2Y1p1lHd4Wgm6wRThIMKyCu1htcFxuO8FTGLYyQF s45WC/IeEZHh6+ZW4jacHWmf4V/u7XRkENMKNzaUnSAoDvMcVFafopDhAfujaFIVWivZE1BOs+RA 0WVAnwqpluNcMlkJ71YSpbvwMBEbVuNdhlh/KRIcoOIewxGjBTjeR5NpWIj85C8epLiLQzoQEzKG MFFt80QANP/GAlqBh6ynO5C9G6iHPT2ycH5KeCjocXty9WYqLNawPNe/edHrmumqjTYkHCyhJKqk oxDiQBSxse7gCdqwiFjJPgMewDgRY8wntEJJ+x2n42UoKEz4RDBWw0OpYJzSDkgpchxxwKcn+LYa LjtRUNAbXj3h0QkYjTBdr3VYnSht6o8FOJRyePJw1hsyBk/g0r5Y6nT3eIRlVUrrg6zb31ge+8jA 4CmIUvkBsSCGjVJUmRTI7dRevKkDOZ37HjKHJkUXGr6e5gk9X1ecPoqEbenFMxM/kNAOchIPekjd Q7tF1WHV6O3hR8YvzEUjRWlH9BT1owUU2ElaoK2kCUTzOwea1b/9ajA+3dmFw8jl3TLdLHqLJRK3 j94g7AgBgqdS4IneIF7adZLd+1HYQTMeFsamJdx0H2gvJ7ntF44ftqoL090owE3fS0JSPQdKvGzk Ujm4rIPNFwWjuc3tJ1FHoLnboSOH6ULaISn6hRITOu3JsILdU8gZeh4OsYH3KI1XxGxqdBmDwubR iANqRkcF2/qXUSTropraxIoT1EW7TmmbjKeBp2Hc1MA9bilh106PISBGy6J4QWwcHSpWGbKo1PSc gr74FzMIawkXN57pLEus7vjQJph4u/rDOrRK+M46ydSMfjbXJbQIQSl0zvg/oTfB0kGtgba+uZXh 86gtGYJ3o8fGO8vKlCou4dANTSzl6q5FkC6YRsO2nuRfmHkDVXtIyuRHHRCnYUDBCRRMES0Roup8 7xge8KTHTRh+8S86KEI217E69D8vVzt1I7YKp7ZeEDSq0rz3w+P+oeH7dg3PG1IB13QqO4XNT7Tj PRqN7ZoTt5Sd5HE0GaVyE4I+ISmQMd7ez+CVETYnYjQSR5gZMAnpoZ3fc3q70mhBLFnf1AwUjuAw u9IOkC9w4HYmHKQZ2p8oj3hRI6gH+qPzM1e1GaEdVkIXpUPy0jJm6Tz8mfk07E5zkWFs/3TvyBGu JELJiMKe/VapQ5/vCPvj+QuMjQSzCYW4MeV9iDeqBdfnNssaqYtjCfidPguqAUdRPDVPsPV0wYwQ no1rgreZCrraWAp6m8I5uYfmMJIiJEq3hWPDu2YEEaJc8DwhonAINR0Xtp4MUD4P27khFrfNgolD PuZhDf9uB/EZeEUmQubwG/QtUCe3sPw1Wg0K+bLNzZYFPhjb2gdZCsXDfmS3V8NDC8LRzPOJrN/R hYREx6oJJ1R4rZrJI8ULATHn4OnzVOdYbLr3GDtngiY10MvQHp0CT+BcBb9AL1uTNngM+JzRsGFr wvLd/ysDlrYXla9vGRn+49T9w/WZyL+nUdrU8G9Q5n/UXgAJvQAAAYNpQ0NQSUNDIHByb2ZpbGUA ACiRfZE9SMNQFIVPU6UqFQc7lOKQoTpZEBVx1CoUoUKoFVp1MHnpHzQxJCkujoJrwcGfxaqDi7Ou Dq6CIPgD4uLqpOgiJd6XFFrE+ODyPs5753DffYDQqDLN6hoDNN02M6mkmMuviKFX9CJKBcRkZhmz kpSG7/q6R4Dvdwme5X/vz9WvFiwGBETiGWaYNvE68dSmbXDeJ46wsqwSnxOPmtQg8SPXFY/fOJdc FnhmxMxm5ogjxGKpg5UOZmVTI54kjquaTvlCzmOV8xZnrVpjrT75C8MFfXmJ61RDSGEBi5AgQkEN FVRhI0G7ToqFDJ0nffwx1y+RSyFXBYwc89iABtn1g//B79laxYlxLymcBLpfHOdjGAjtAs2643wf O07zBAg+A1d627/RAKY/Sa+3tfgRMLANXFy3NWUPuNwBok+GbMquFKQSikXg/Yy+KQ8M3gJ9q97c Wuc4fQCyNKv0DXBwCIyUKHvN5909nXP7905rfj8RyHKAP8Z7jgAAAAZiS0dEAP8A/wD/oL2nkwAA AAlwSFlzAAAuIwAALiMBeKU/dgAAAAd0SU1FB+MJGxMaDQbw6iwAACAASURBVHja7N1tjJ1nfh72 67wMh+RoRHJJaSlSWmm8W4ozKjfr1lglbm2nhdD0W+J+8QcZRysg6PhDCxUFWiFAmxao4a4K1IBa BCFtIJIel62d+rVJnLiQ410vuomFuI6X0Aylbna0K1GiRFEkRVF8mTnn9MMcaimKEl80c87z8vsB giBKy51znWe19/Ncz33/W3OHFgIAAFBWK4tL30zytCS4Ha1u8vVtcrhd7VayZ0vSbcsCABq1BhAB AABQcv+BCLhdf2VaBndipqMkAIAm8n//AABAaa0sLt2V5N+RBLej1U2m3e3etnYrmZ2SAwA0ch0g AgAAoLRa+ekkXUFwOx7eIoM7sUduANBYigIAAKC8hvkPhcDtaHWTHR053K7ZriOHAKDJLAMAAIAy +2si4HbYTXD7HDkEACgKAACAUnr62RNTSb4uCW7nDtdugtt3t8O9AMAySgQAAEAZ/dLSuZ9OslUS 3KoH7Sa4bdPtZLuiAAAaT1EAAACU1V8VAbdzd7vX8Tm3F1kr2SEzACCKAgAAoLweFQG3ym6C2zfT McAYAFhnSQAAAJTVT4qAW9Kym+C2HwYYYAwAXLs2EAEAAFA2K4tL9yV5SBLcij0eeN+23TIDAK6h KAAAAMqnlZ8RArd4reR+D71vy3Q7merIAQD4MUUBAABQPsP8NSFwK/ZMrT/45tYZYAwAXM9yCgAA KKOfFgG3wm6C2zPbNcAYAPgkywMAAKBUnn72xFSSr0qCm2l17Sa4rQcABhgDAJ+2ThABAABQJr+0 fO4nk2yVBDfz8BYZ3I67uzIAAG5MUQAAAJTLMF8XArdyN7vDQN5bNt1OtisKAIBPX1oBAACUyl8V ATfzoN0Et8UAYwDgsygKAACAsvkpEfCZWsleD75vmQHGAMDNWCoAAAClsbK49IUkD0uCz7JHSXDr N/2tZJsjmgCAm60ZRAAAAJRGy24Cbu5+RcEtm+nYTQAA3JzlAgAAUB7D/KQQ+Cyt7vpgXm7hhr+V zCpVAIBbWTeIAAAAKJFHRcBnedgQ41t2d1cGAMCtURQAAABlsiACPlUr2eG8/Vu72W8l2xUFAMCt rh1EAAAAlMHK4tJdMciYz2CI8a3bLSsA4DZ0k6Qo5ncn2Z314uBif9g/+eQTr14WDwAAMEb/rgj4 VC1DjG/VdDuZsvMCALgN7aefPTGV5KEks0lmkuzptDr7RQMAAIzZIRHwaVodQ4xv1Q6FCgBwm9rP PLV/Ncnbgwz7o1+7mOSUaAAAgDFTFPCpDDG+NdPtpKtQAQBuUzdJer3lN5K8IQ4AAGCCviYCbqht iPGtspsAALjD5RYAAMBkjY5E/aokuJEH7Sa4JbNduwkAgDtjCQEAAEzcLy2dm0+yVRJ8QivZZTfB LdkmJwDgDikKAACAMrCbgBsyxPjW2E0AAHwelhEAAEAZ/Nsi4Ea+1JXBTW/sW3YTAACfcz0hAgAA oAQOiIBPaCV7Dee9qZmO3QQAwOdjKQEAAJTBT4qA6+1REtz8pr6VzMoJAPi8awoRAAAAk7SyuHRX kockwfXu9wD8pmYcOQQAbABFAQAAMFmtLAiBG92tGmJ8k4jsJgAANm7pBQAAMEHDfFUIXO/BLTK4 GbsJAICNoigAAAAm7Ssi4GMMMb75zbzdBADARq4tRAAAAEzY10TAtVrelL8puwkAgI2kKAAAACbt YRFwrS91ZfCZN/J2EwAAG72+EAEAADApz71wYDrJ/ZLgI44duim7CQCAjaYoAAAAJuavf/f3H07i /XE+4tihm9zE200AAGzGGkMEAADAxLRyUAhc6+EtMvgsdhMAAJtBUQAAAEzOMHNC4COtZIcH4Z9p m3wAgE2gKAAAACbpJ0TAVXscqfOZpttJ1108ALAJLDEAAIBJcvQQH9ljWsVn2qFIAQA2iaIAAACY pIdFwNW7U8cOfTq7CQCATV6KAQAAjN/K4tJdSb4oCRK7CW7GbgIAYDMpCgAAgEkxn4CP3O9B+Key mwAA2GyWGgAAwKTMiYCrd6bT7k4/1TZHMgEAm78cAwAAmAiDjEni2KHPvGlvJdvlAwBs9ppDBAAA wIQ4eogkioLPMmM3AQAwBooCAABgUh4UAWknOzwMv3E0rWTW7AYAYDxLMgAAgIl4WATYTfDp7CYA AMZFUQAAAIzd08+emEpyvyRQFHw6Q4wBgHFRFAAAAGP3S0vn9ifxiLjpWo4d+jTT7aTrjh0AGBPL DgAAYBLMJyB7nL//qXbIBgAYI0UBAAAwCQ+IAMcO3ZjdBADAuFl6AAAAk7BfBA3n2KFPZTYBADBu igIAAGASfkIEzdbyMPzGN+mtZLudFgDAuNcgIgAAACbAjIKG+5KH4Tc0o0ABACZAUQAAAEzCPhE0 WCvZ5YH4DTl2CACYBEUBAAAwCYYZN1irsz6wl48zxBgAmBRLEAAAYKxWFpfuSrJTEs21253oDdlN AABMiuUZAAAwbvtF0Gz3T8ngEzfnhhgDAJNci4gAAAAYq5ZBxk2/C3Xs0CcZYgwATHiJBgAAMEbD fEkIzbXHW/M35NghAGCSFAUAAMC4OXqowRQFn2SIMQAwaZZod6A4eqid/truJNtHv/Rer7d8XjIA AHBL9omgoVrJDm/Of8Ld7swBgAnzzsKd6K/tTfKlJHtGfxwoivkZwQAAwC25RwTN1FISfPKmvJVM yQUAmPSaRAR35Pwgw/41f31hkOElsQAAwC1x9FBDfcmb859giDEAUAaWaXeg11s+Xxw99L3016b7 w/7gySdevSwVAAC4ZfeKoJl2eSj+CYYYAwBloCi4Q73Hjw2SXJQEAADctr0iaKD2+tBefswQYwCg REs1AACA8VhZXPpCkq2SaJ49XlP7BLsJAICysFS7Dc8XBzvttLaMcrt2STdMMugP+1c63enV0W4D AADgkwwybqgZr6l9TLuVbHdHDgCUhGXJpxiVArNJ7kpy1yDDre20+klWk6yN/nxVJ0m30+p0B/3V LUUxv5bkUpIPklxIp3tBeQAAAEla2ZGhGJrIfIKPM8QYACgTRcE1nn72xNQjux7bnWRnkqkkF5Kc T3Km3Zm6eKsP+0e/z9YkM0nuG/RXtxfF/PtJ3kun+77SAACAxhrmPiE0kPkEn+DYIQCgTFpzhxYa H0JRzM8m+WKSbUnOJDnT6y1f2LDf/+ihdvprdyfZM8jwrnZap/vD/jtPPvHqZZcgAABNsrK49LeT /LokmmXPluTL03K4qt1K9prUAQCUSKN3FBTF/I7kozeaTm7W2/6j3/NskrPPFwc7Se7ptDoHimL+ Qn/YP6EwAACgQXaLoHkMMv44xw4BAGXTyOVaUczPJHlg9Jcner3l8+P67/5G73g/ycni6KF30l/b PSoMzg4yfHP09wAAoM72iqB5dngw/jGOHQIAyqZRRcFodsC+JLNJ3uj1ls9O6mcZ7TI49Xxx8L12 Wve101ooivmT6XRPm2EAAECN3SOChjGb4GOm20lXJgBAyTRiRsFoRsC9o5uSU+l03ynbw/jnXjgw 3Wl1HkiyJcnr49zlAAAA47KyuPS7SX5eEs1hPsHHzXaT2Sk5AADlUvuioCjmdya5P8mHVZgHMBqs /ECSK/1h/3XzCwAAqJOVxaVvJ/lZSTTHg1uTvR6Mf+TeaTsKAIDyqW1RUBTz27L+wL2dMc8h+Nw/ +/oOiN1ZP7/1zCDDt8wvAACgDlYWl76X5JAkmuNrM+vH7bCew267KwCAEqpdUfB8cbDTTmtfkp1J 3uz1lk/X5LOc7PWWT7lkAQCospXFpZUkD0miIdrJozNiuGrnVLK9KwcAoHxqUxTU+S38Ku+OAACA a60sLp3J+oswNID5BB+3b5sMAIByqkVR0JRz/as2bwEAAK63srg0lEJzmE/wY44dAgDKrNJFwXMv HJjutDoPJNmS5PUmvGk/2jlxb5J7kpxKp/tO7/FjA5cyAABlt7K49IUkpyXRHOYT/JhjhwCAMqtk UTA6u/++JLuSnEyne7ppD8uffvbE1CO7HtuX5O6slyRnXc4AAJTZyuLSQ0lWJNEQ5hN8zL3TSVdp AgCUVOWKgqKY351kX5KzgwzfrMscgs+Rx0zWj11K1guDCy5rAADKaGVx6atJ/lISDbnZ7CZfdyZ/ EscOAQAVWLtVpSgYzSHYn2SQ9QfiF319H8vnaoHy/stnXnzzmaf2r0oFAIAyWVlc+rkk35JEM5hP 8GOz3WRWFgBAiZW+KBjNIdifZHuSNxyx8+lG8wv2Jtkd8wsAACiZlcWlv5nk9yXRDAe3Jzs6ckgc OwQAlF9piwJDe+/cNeXK1iQner3lc1IBAGDSVhaXfjHJb0iiCXeayaN3iSFx7BAAUA3dMv5QRTG/ M/21B7J+jM5xx+jcniefePVykh9cPa6pKOa/GMc1AQAweTtF0BAtEVy1xU4CAKACSlUUXDeY9wfr g3n3+5buUK+3fD7J8aKYvyfJV4pi3gBoAAAmaUYEzbCnK4Ortjl+CQCogFIs354vDnbaad2f5O4k b/Z6y6d9NRun11s+9Xxx8L12Wve101ooivmT6XRPO8oJAADYDDPeok+StFtmEwAA1TDRouC6OQSn 0+m+7OH15hjtInjjuRcOnOq0Og+kv3ZPUcy/Ptp1AAAA47BLBA35or1FnySZkQMAUBETKwqKYn5H +mv7k1zqD/uvjs7VZ5ONcv7+aH7BA0Uxf6U/7L8ufwAAxsBI1yZorQ/wxbFDAEB1jL0oKIr5bVmf Q9DO+oBdb7RPQK+3fL44euh4+mu7O63OgaKYPzPI8C3zCwAA2ETbRVB/LQ/Hkzh2CAColrEVBaM5 BPuS7ExystdbPiX+yRod83R1fsH9o/kFZkQAALBZDDNugN0ejq9f7AoTAKBCWnOHFjb1v2A0h2B3 kr1JvLVeYjfY7XFBKgAAbJSVxaXfTfLzkqi3g9uTHR6SZ+dUsr0rBwCgGja1KLh6Dn4S5+BXSFHM 70xyf5IPXz7z4uvPPLV/VSoAAHxeK4tL/yzJ35BEvX1txoyCJNm3TQYAQHVsSlHw3AsHpjutzgNJ tsQcgkoa7QS5N8k9SU6l031ndFQRAADckZXFpW8n+VlJ1PkOM3n0LjFMt5PdRncDAFVaxm1kUTCa Q3Bfkl1JTqbTPe3hcrU9/eyJqUd2PbYvyWySN3q95bNSAQDgTqwsLv1Zkq9LosY3mN3k696kz2w3 mZ2SAwBQoXXcRhUFRTG/O8m+JO8PMnzDHIJ6KYr5mawfI5WYXwAAwB1YWVz6XpJDkqivPVuSL3uT PvdOJ13HLwEAFfK5i4JrHiAPsv4A+aJY60shBADAnVpZXDqe5GFJ1NeDW5O9DX+Tvt1K9m51LQAA 1XLHRcHoDPt9WT9m6HVH0jTH6Lvfm2R3kh/1esvnpAIAwM2sLC6tJHlIEvVlkLFjhwCAarrzJVx/ 7aEkWwcZLikJmqX3+LFBr7f8ZpIfJPlSUczvlAoAADRcS0mQJJ2WDACA6rmjZVxRzO9N0k6n+wNH zzRXr7d8oT/sv5rkgaKYN7IMAICbsWasMw/IkyTbuzIAAKrntouC5144MJ3knkGGK73Hjw1E2GxP PvHq5SSvJ3lQGgAA3IQxtzW2xwNyOyoAgMq67WVMp9W5N8kpOwm46urRU0UxPysNAABophkPybNF BgBARd3JMmbny2dePC06rnM6iVkFAADQUNs8JM+2jgwAgGrqJsnzxcFOO62dWS8OLvV6y+dv9A+P jh0aPvPU/lXRcZ0Pk+z+tL95/TWWTveCo6sAAKA+tjZ8RkG7lXSVJQBAVdcyzxcHO0kOJXkoyZeS HCiK+ftv9A93Wp1ukiti43qDDC9lVDxdrzh6qN1Oa/7aayz9tYekBgDQOHag1lXL+fxThjkDABXW bnemhu20rp83sCYaNspo58D1uwfMuAAAgJpoOXLHfAIAoNLavcePDdLpvpzk+0leS7LU6y2fvNE/ /PKZF68k2SI2PnEhpbU1n1UwdbrHk7w6usaO93rLP5QaAADUw24Pyc0nAAAqrZt89Mb3uZv9w888 tX+1KNJ67oUD008+8epl8XGN2SQffNrfHF1j58UEAAD1M9PwosB8AgCg8uuZO/jPnOm0OrtFx3W+ kOSMGAAAoHm2mU8AAFBpt72c6w/7p5LsfvrZE1PiI0mKYn53krVeb/mCNAAAoHm2NvxBufkEAEDV 3fZyZnTk0MlHdj325eLoIcuhhiuK+W1J9iV5XRoAANBArWS64XeG5hMAAFV3R8u5Xm/5VJKL6a99 5fnioCVRQxXF/GySryT5Ua+3fFEiAADQQA3fTWA+AQBQizXNnf4He73lHyZ5v53WwujoGRri+eJg pyjmH0zyYJLXer3lc1IBAIBmaplPAABQ/TXd3KGFz/UbjI6eeSDrpcOJXm/5vFjrqTh6qJ3+2u4k e5OcSaf7Zu/xYwPJAABwK1YWl84k2SmJetmzJfnydHM//2w3mTXBDwCouM9dFFxVFPM7k9yf5MP+ sH9iNMuAmhgdM/RAkiv9Yf913y8AALdLUVBPD25N9jb4Qfm9044eAgCqb8OKguSjN87vTXJPklPp dN/xxnm1PffCgelOq/NAki1JXrdjBACAO6UoqKeD25MdDZ5ct2+bawAAqL4NLQquevrZE1OP7Hps X5K7s/5w+ayoq+X54mCnndZ9SXYlOZlO97TSBwCAz0NRUE+Pzjb3s0+3k93TrgEAoPo2pSi4qijm Z7J+XE2yXhhcEHn5jYZT70tydpDhm9/oHe9LBQCAz2tlcelkki9Kok53lMmjdzX345tPAADUZlm3 mUXBVdc8eH5/kOEbHjyX02gOwf4kg6wXOxelAgDARllZXFpJ8pAkaqSdPDrT3I+/cyrZ3nUZAADV N5aiIPlofsHeJLtjfkGpjOYQ7E+yPckbjooCAGAzKApqeEPZTb7e4DP6DTIGAGqzrhtXUXDVNQ+l tyY50estn/M1TIbh0wAAjNPK4tLxJA9Loj72bEm+3NAz+tutZO9W1wAAUA9jLwqucszNZBXF/M6s z494/+UzL775zFP7V6UCAMBmWllc+l6SQ5Kojwe3Jnsbeka/QcYAQJ1MrCi4qijm70myNwbnjitv A6YBAJiIlcWlP0vydUnUx8HtyY5OMz+7QcYAQJ1MvChIkueLg512Wvcl2ZXkZDrd047A2VhPP3ti 6pFdj+1LcneSN3u95dNSAQBgnFYWl76d5GclUR9fm1l/s76J7tmSTHVcAwBAPZSiKLhqNL/ggSRb sv62+3lf0edz3RyC0+l0TyphAACYhJXFpX+W5G9Ioj4enW3uZ9+3zfcPANRHt0w/zJNPvHo5yfdH 8wseKIr5K/1h//XRr3ObimJ+R/pr+5Nc6g/7r8oRAIAJ+1AENdJq7kdvt3z9AEC9dMv4Q/V6y+eL o4eOp7+2u9PqHCiK+TODDN8yv+DWFMX8tqzPIWjHzgwAAMpDUVAnDX5YPqUoAABqplvWH2x0PM6p 54uD77XTur+d1kJRzDtb/zOMZj3sS7Izycleb/mUVAAAKJELIqiPVru5n31L2/cPANRLt+w/4GgX wQ+vviVfFPP3ZP0teTcZI6M5BLuT7E1yZpDhkt0XAACUkB0FNbK7wQ/LtyoKAICa6VblB+31li8m ebUo5ncmmSuK+Q9fPvPi6888tX+1yV9gUczPpr/2QJIr5hAAAFBy1qrUQsvRQwBAzXSr9gP3estn i6OH3k9/7d5Hdj12sChyKp3uO6OjihrjuRcOTHdanQeSbIk5BAAAVMMZEdTHTEPfqm+3kq4dBQBA 3dY4Vfyhe48fG/R6yydfPvPi8STT6a8tjHYa1N7zxcFOUczf32l1DiQ5l073uJIAAAAYt20NfVhu kDEAUEetuUMLlf8QRTE/k+SBJIMkJ+o6v6Ao5ncn2Zfk/UGGb5hDAABAlawsLv1nSf5XSdTD12aS 6QaWBbPdZHbK9w8A1Eu3Dh9iVAwcHz1I/4mimK/Vg/TripDvj+Y1AABA1ZwVQX1MN3RHQceOAgCg hrp1+jC93vLp4uihM+mv7W2ntVAU85WeX/D0syemHtn12ANJtid5o9dbdmMFAECVOTKzLhr8sHyL +QQAQB2Xd3U4euhGRsN+9yfZmvXjiM5V5Wcvjh5qp792b5J7kmYOawYAoH5WFpd+Lsm3JFED7eTR mWZ+9H3bfP0AQP3Utii4qijmZ5Psz/qxPa+X/die0VDm+5Ocf/nMi28+89T+VZcpAAB1sLK49NUk fymJGmhoUdBuJXu3+voBgPqpfVFwVVHM35Nkb5KzgwzfLNv8gmvmECTrhcYFlycAAHWysrj0UJIV SdTgRrKbfL2Bb9ZPt5Pd075/AKCG67umFAVJ8nxxsNNO674ku5KcTKd7etJH+ox+pvuT3J3kzV5v +bTLEgCAOlpZXPpCEuvdGtizJflyAx+Yz3aT2SnfPwBQP40qCq4qivltWT+OaEvW394f+1C16+YQ nE6ne9IcAgAA6m5lcWkohepralGwcyrZ3vX9AwD108ii4KrR/IIHklxJ8tY4jvsZFQS7ktyX5MP+ sH/iySdevexSBACgCVYWl84k2SmJantwa7K3gW/W3zuddNu+fwCgfhpdFFxVFPO7k3wxyVqSd9Lp vr/Rb/c//eyJqUd2PbY76zsILmZMxQQAAJTJyuLSSpKHJFFtTS0K9m3z3QMA9aQouEZRzO/I+oP8 bUneT3I2ne75Oy0NnnvhwHSn1bk7yY7R73k2ybu93vJFaQMA0EQri0vfS3JIEtV2cHuyo9Osz9xu JXu3+u4BgHpSFNzAaMDwF5LsGGR4VzutS1nfBXA5yaUk/SSD/rC/liSdVqebpJ31mQfTSbYmmUky THI+n7NwAACAulhZXPp2kp+VRLU1sSiYbie7p333AEA9GcN0A9/oHe8nOTX64+rw4+1ZLwF2jP58 tSAYXPPHatbLhNMvn3nx9Wee2r8qTQAA+JjTIqi+ra3mfeYtZhMAADWmKLgFo6OCbvO4oP2CAwCA T/pQBNU33cCH5p2W7x0AqC/vRAAAAON0SgQV19AH5nYUAAB1ZkfBHRrNMdieZJBO96L5A2y04uih dvprM64xAKBmTooAAADKxTsRd6Ao5ne20/orSQ4kOZj+2sLzxcGOZNjAa2x20F/96jXX2CPPvXDA 6DQAoA7MKKi6Bu4oaLeSrrtnAKDO6x0R3JGt1y2Pp9tpbRELG3mNtdO6tnza0ml1XGMAQB04eggA AEpGUXAnOt13kvybJG8neSvJ8dHAY9gQvd7yqSTfH11jbyd5tddbPi8ZAKDyWnlLCBX/Cht4Fzll kDEAUPc13tyhBSkAAABjsbK49HCS45Ko8E1kN/n6tmZ95tluMjvluwcA6suOAgAAYJwcPUTldOwo AABqTlEAAACMzdyRhfeSXJJEde1u4F3kFnfOAEDNWe4AAADjdlIEAABQHooCAABg3N4RAVXSdecM ANSc5Q4AADBuJ0RQXTMNu4tsm08AADRhzSMCAABgzAw0pjKmFAUAQAMoCgAAgHF7UwQAAFAeigIA AGDcHD1EZWxx1wwANIAlDwAAMF6t/EgI1bXNXSQAQO1Y4gEAAOM1zA+FQFV0zCgAABpAUQAAAIyb o4eoDEcPAQBNYMkDAACM1dyRhQ+SnJUEAACUg6IAAACYhNdFUE1bG3YUT9ddMwDQAJY8AADAJLwp Akp/w2w+AQDQlHWPCAAAgAkw0BgAAEpCUQAAAEzCD0RA2U3ZUQAANISiAAAAmIQTIqDstrhjBgAa wrIHAACYBMOMAQCgJBQFAADAJJhRUFHT7iIBAGrHEg8AABi7wws7TiRZkwRl1jGjAABoCEUBAAAw ds88tX81yRuSoMwMMwYAmkJRAAAATMorIqDMWooCAKAhFAUAAMCkmFMAAAAloCgAAAAm5QcioMy6 7pgBgIaw7AEAACbluAgAAGDyFAUAAMCkrIiA0t4sm08AADRp7SMCAABgQhw9BAAAJaAoAAAAJmLu yMIHSd6WBGU0ZUcBANAgigIAAGCSXhEBAABMlqIAAACYJAONK+byQAYAAHWjKAAAACbJnAJKaYu7 ZQCgQSx9AACAyWllRQgAADBZigIAAGByho4eAgCASVMUAAAAE/Otn/5bryRZkwQAAEyOogAAAJiY J5949XKSNyRB2XRaMgAAmkNRAAAATNorIqiOS0MZAADUjaIAAACYtH8tAgAAmBxFAQAAMGnfFwFl M+XoIQCgQRQFAADAZLXyPSEAAMDkfFQUFEcPtZ8vDnZEwmZxjTEOrjEAqKBhloRQHRcHzficLTsK AIAGac0dWkhRzD+YZHeSVpIrSV7r9ZbPi4eNUhTz9ye595pr7M1eb/m0ZNjAa2zvIMO97bQ6gwz7 7bRO9HrLpyQDANWwsri0kuQhSZTfg1uTvVP1/5z3Tidde/ABgIZoP/3siakke7L+ADdJtiS5RzRs lOLooXZ+XBK4xtgs97TT6iTJ6M+uMQColr8QAQAATEb7maf2r2Z9eNi5JOeTvPPymRdfFw0bpff4 sUGS/y/JmdE19m5/2F+RDBvsB0nevXqNJXGNAUC1vCoCAACYjNbcoQUpAAAAE7WyuPSLSX5DEuW3 Z0vy5en6f05HDwEATWLZAwAAlMH3RAAAAJOhKAAAACbu8MKO5SSXJEFZ2E0AADSJpQ8AADBxo9lp dhVUwOmBDAAA6kZRAAAAlMW/FgEAAIyfogAAACiLYyIAAIDxUxQAAABloSiogKGjhwAAakdRAAAA lMWfiwAAAMZPUQAAAJTC3JGFD5K8IomSG4oAAKBuFAUAAECZLIkAAADGS1EAAACUyZ+JoOTsKAAA qB1FAQAAUB6t/IUQyu+ygcYAALWiKAAAAMpjmH8lhPK7ZFcBAECtKAoAAIDSmDuy8F4MNAYAgLFS FAAAAGVjV0HJXXT0EABArSgKAACAsvmXIgAAgPFRy2pngAAAIABJREFUFAAAAOXSyktCKLcLdhQA ANSKogAAACiVw/M7/iLJJUkwSWvKEACgQRQFAABAqTzz1P7VJN+TRHmd9hAdAKBWFAUAAEAZfVcE 5TVUFAAA1IqiAAAAKJ9W/oUQAABgPBQFAABA+QzzHSGU+vsBAKBGFAUAAEDpzB1ZeCvJ25IoKUUB AECtKAoAAICyMqegxC7XfE7BUBkCADSIogAAACirPxNBeV3yIB0AoDYUBQAAQFn9SxGU18Wa7yhY VYQAAA2iKAAAAErp8MKO7ya5JIlyujCQAQBAXSgKAACAUnrmqf2rSV6SBAAAbC5FAQAAUGb/QgTl dLrmOwr6jh4CABpEUQAAAJRXK/9cCOU0dPQQAEBtKAoAAIDyGua7SdYEUcrvBgCAmlAUAAAApTV3 ZOGDJP+vJEpIUQAAUBuKAgAAoOz+RATldLnGxw9dcbQSANAgigIAAKDsDDQuqUt2FQAA1IKiAAAA KLvvxJyCUrrorXsAgFpQFAAAAKU2d2ThvZhTUEoXalwUrNotAQA0iKIAAACoAnMKSui0HQUAALWg KAAAAMqvlX8uhPIZ1rgoGNhRAAA0iKIAAAAov2G+m+SSIEr3vQAAUAOKAgAAoPTmjix8kOQlSZRM zYuCNUcrAQANoSgAAACq4g9FUD7n+jIAAKi6rghu33MvHJjutDr7k2xPMkjyXjrdd3qPH/O+CRvi +eJgp53W/UlmR9fY++l033SNsVGKo4fa6a/tH11j7STnBxm+8Y3ecbf6AJRXK3/iqJvyuThIdnTq +dmGrjcAoCHsKLgDnVbn3iS7kkwn2ZZkf/pr2yTDxv0Ps3VPkj3XXGNfTH/tbsmwYfpru5LcO7q+ ppPsaaf1BcEAUGbf+Zlf+FdJzkqiXC7U+FWWVUUBANAQioI70B/230lybpBhP8mVJG+n070oGTbK y2dePJ3kzDXX2LvpdN+XDBtlkOHZJO+Orq8ro+vtPckAUGaj3ZX/RBLlcrrGRUFfUQAANERr7tCC FAAAgEpYWVz620l+XRIl0k4enannR5vtJrNTvmIAoBFLOgAAgMp4UQQl4617AIDKUxQAAACVMXdk 4bUkr0iiRIbJ5ZoeP3Rl4OsFAJpBUQAAAFTNPxVBuVyq6a4Cw4wBgKZQFAAAAFXzLRGUy0Vv3gMA VJqiAAAAqJo/TnJJDOVxoaZFwcCOAgCgIRQFAABApcwdWfggybclUR6na7yjYM1uCQCgARQFAABA Ff1jEZTHsC8DAIAqUxQAAABVpCgok2FyuaZv3l+xowAAaABFAQAAUDlzRxZeS/KKJMrjUk3P8++b UwAANICiAAAAqKp/KoLyuOjNewCAylIUAAAAVfX7IiiPC44eAgCoLEUBAABQSYcXdnw3yVlJlMO7 azIAAKgqRQEAAFBJzzy1fzXJP5FESdT0LP9VMwoAgAZQFAAAANXVyv8lhJIYJpdreEzPQFEAADSA ogAAAKiuYf4wiUNvSuJMv56fa82cAgCg5hQFAABAZc0dWfggyR9LohwueKAOAFBJigIAAKDq/rEI yuF0TYuCKwoQAKDmFAUAAEDV/Y4IymFY06OH+uYUAAA1pygAAAAqbe7IwltJXpJECdR0oLEdBQBA 3SkKAACAOvhdEZTDpRq+fb9qRwEAUHOKAgAAoA5+XwTl8O6aDAAAqkZRAAAAVN7ckYVXkhyTxOTV caDxYJisOX4IAKgxRQEAAFAXhhqXQF0HGgMA1JmiAAAAqIvfFEEJGGgMAFA5igIAAKAWHD9UHmdq uKugb6AxAFBjigIAAKBOHD9UAhfsKAAAqBRFAQAAUCeOHyqBd9fq95lW7SgAAGpMUQAAANSG44dK ooYP1QeKAgCgxhQFAABA3RwVwYQNk3M1nFOw5vghAKCmFAUAAEDd/JYIJu+iOQUAAJWhKAAAAGpl 7sjCa0leksRk/aiGcwr6jh8CAGpKUQAAANTRb4hgsoZ2FAAAVIaiAAAAqKPfSUsIEzVILtfswfqq HQUAQE0pCgAAgNqZO7LwVob5I0lM1pmaDTQeKAoAgJpSFAAAAHX12yKYrAs1PKpnzfFDAEANKQoA AIC6+s0kl8QwOe/WcKCxOQUAQB0pCgAAgFqaO7LwQZLfkcQE1XBOQd/xQwBADSkKAACAOvs/RTBZ dZtTYEcBAFBHigIAAKC2Di/s+MMkb0ticuo2p2DVjgIAoIYUBQAAQG0989T+1ST/hyQmp25zCgZD A40BgPrpJklRzM8m+UKSqSQfDjJ8+xu9433xsFGKYn4myZ7RNXbp5TMvvj26aYONusa2ja6x6SSX +8P+O08+8eplybBRnnvhwHSn1bknydYkq0ne7fWWL0gGoBr/Gk/yX4hhQmr4UH1oVwEAUDPtp589 MZXkQNYfsO1Icl87rQdFw0Ypjh5qJ3n4mmvsi4/semxOMmywryS5d3SN3dtpdb4sEjZSp9WZS/LF 0TW2Z5DhvyUVgGqYO7LwvSTHJDE552r2GtolOwoAgJppP7LnP+4nOXP1FwYZ9pO8Jxo2Su/xY4Mk p5MMr7nGzkiGDfbRNTb6s3+PsanXWDutd0UCUCm/JoLJqdvxQwYaAwB105o7tJAkeb442BkOB91O d3p19GAXNlRx9FC7v3Z5yjWGawzXGADjtrK4dF+SH2V0/Cpj1k4enanRx2kle7f6WgGA+vioKAAA AKizlcWl303y85KYjK/NJNPt+nyefdt8pwBAfbRFAAAANMQLIpicMzWbU7Da950CAPWhKAAAABrh 8MKOP0zytiQm40LNDu0z0BgAqBNFAQAA0AjPPLV/NcnzkpgMA40BAMpLUQAAADTJcyKYkEFyuUYP 11eHvlIAoD4UBQAAQGPMHVl4JcmfSmIy6jSnYDBM1uwqAABqQlEAAAA0za+LYDJ+5PghAIBSUhQA AACNcnhhx2/FUOOJGPbr9Xn6jh8CAGpCUQAAADSKocYTNEzO1agssKMAAKgLRQEAANBEhhpPyLs1 On7osqIAAKgJRQEAANA4hhpPzrs1m1NgoDEAUAeKAgAAoJla+XtCmIBBvd7Ev9j3lQIA1acoAAAA Gunw/I7fi6HGE/HGan0+izkFAEAdKAoAAIBGGg01/vuSGL/TNXq4vjr0fQIA1acoAAAAmuzXkqyJ YbyG/focPzQYmlMAAFSfogAAAGisuSMLbyX5R5IYs2FypkZn+5tTAABUnaIAAABoumdFMH4/qtE+ DnMKAICqUxQAAACNNndk4dtJjklivIY1egvfnAIAoOoUBQAAAMn/IoIxGybnalIWmFMAAFSdogAA ACD5zSRnxTBe79bo+CFzCgCAKlMUAAAAjTd3ZOGDJEckMV7vrtbns5hTAABUmaIAAABg3eEka2IY oxodP2ROAQBQZYoCAACAJHNHFl5L8o8kMV51OX7InAIAoMoUBQAAAFe18k0hjJc5BQAAk6coAAAA GJk7vPBSkpckMUaD+hw/ZE4BAFBVigIAAIBrtfI/C2G86rKr4LKiAACoKEUBAADANQ7P7/i9JK9J YnzqdPzQh8ZhAwAVpCgAAAC4xjNP7V9NclgSYzSoz9v4/aGvEwCoHkUBAADAJ/29JGfFMD5vrNbj c1ww0BgAqCBFAQAAwHXmjix8kOSIJManLscPDYbJmlkFAEDFKAoAAABu7NkkTpwfl0FyriZv41+0 qwAAqBhFAQAAwA3MHVl4K8k/kMT41GVXwRU7CgCAilEUAAAAfLpfTUsI4/JuTeYUXFYUAAAVoygA AAD4FHNHFl7JML8niTEZ1uf4oQ8dWgUAVIiiAAAA4LO08k0hjM8rV+rxOfpD3yUAUB2KAgAAgM8w d3jhpSR/JInxGNZkR8EFA40BgApRFAAAANxMK78qhDEZJidrMKtgMEzWzCoAACpCUQAAAHATc4cX /u8kL0liPH5Uk/P9L9pVAABUhKIAAADg1vyKCMbD8UMAAOOlKAAAALgFc0cW/iDJMUmMgeOHAADG qiuCO1MU87NJZpKkP+yfefKJVy9Lhc26xpKc6/WWL0qFDb7GZpLMjv7yfK+3fEEqAHATrfxyhvkt QWy+H15J9k5V/3Nc7CezXtEDAErOcuUOFMX83iQHkuxPsr/T6jzy3AsHpiXDBl5ju6+9xpIsjIoD 2KhrbDbJwWuusYNFMb9TMgDw2b7zM7/w27GrYDwGyeUavI1/xY4CAKACFAV3ZjXJ8Nq/Pn72Tyz/ 2ND7iWuvscH6Ka1rYmEDrQ0+fvrvcPTvNgDgM/QePzZI8j9JYjzeqMHq5PLA8UMAQPm15g4tSOEO PP3sialHdj22Pckgne6F0Q0DbJjni4Oddlp3ucbY5Gtse5IMMvzwG73jxu0BwC3+f+jP/T+/+3KS h6Wx2XesyaN3Vf9jzHaT2SlfJwBQ4mWXogAAAOD2rCwu/WKS35DE5ntwa/VnFUy3k90OqwUASszR QwAAALfp8MKO30ryiiQ2349qcACn44cAgLJTFAAAANymZ57av5rklyWx+YZ9Q40BADabogAAAOAO fOdnf+F/j10Fm2+YnKnBJKWLpkEBACWmKAAAALgDvcePDdLK35XE5vvhlep/hst2FAAAJaYoAAAA uEPf+Zlf+O0kxySxyQbJuRq8kf/hmq8SACgnRQEAAMAd6j1+bJDkv5XE5nulBrsKHD8EAJSVogAA AOBzmDuy8AdJXpLE5qrDUOPLg2TNEUQAQAkpCgAAAD6//1oEm2yYvLFa/Y9hVwEAUEaKAgAAgM9p 7sjCt5P8kSQ217s1KAqu2FEAAJSQogAAAGAjtPJ3hbDJhtUfauz4IQCgjBQFAAAAG2Du8MJLSX5P EpvLUGMAgI2nKAAAANg4fyfJmhg2z3Ct+kONLygKAICSURQAAABskLkjC68k+QeS2FxVH2o8GDp+ CAAoF0UBAADAxvofk1wSw+apw1Bjxw8BAGWiKAAAANhAc0cWXktyWBKbaJicrHhZ4PghAKBMFAUA AAAb739IclYMm+eHFR9qPBgmH5pmAQCUhKIAAABgg80dWXgvyTclsYkGybmKv5Xv+CEAoCwUBQAA AJvg8MKOX03ymiQ2zysV31VweWCoMQBQDooCAACATfDMU/tX08rTktg8w7X1h+1VZlcBAFAGigIA AIBNMnd44R8m+VNJbJ43DDUGAPjcFAUAAACbqZX/Sgib593Vau8qGAyTVWUBADBhigIAAIBNNHd4 4aUkRyWxSYbV31Xw/pqvEQCYLEUBAADA5vtvklwSw+Z4t+JFgaHGAMCkdXZ98R4pAAAAbKJdf37P 2bM/dWo2yb8vjc3RbSd3dar787dbyXTH9wgATGgtIgIAAICx+OUkb4thc/zwSrV/fkONAYBJUhQA AACMwdyRhQ+yXhawGQbJyQofQWSoMQAwSYoCAACAMfn2v/ef/P0kxySxOaq+q8BQYwBgUhQFAAAA Y/KN3vF+kv9cEptkkJyr8Fv5hhoDAJOiKAAAABijuSML307ye5LYHK9UfFfBRccPAQAToCgAAAAY v/8yySUxbLzh2vqb+VVlqDEAMAmdXV+8RwoAAABjtOvP7zl79qdOdZP8dWlsvLeHyf6pav7swySd VjLltT4AYIwsPQAAACbgWz/9t76Z5BVJbLyq7ypw/BAAMG6KAgAAgAl48olXLyd5WhKb4y8vV/dn N9QYABg3RQEAAMCEzB1Z+IMYbLwphv1q7yo4t+o7BADGR1EAAAAwWQYbb4Zh8kaFH7bbVQAAjJOi AAAAYILmjiy8luSbkth4766aVQAAcCsUBQAAABN2eGHHr8Rg441X8V0FFxQFAMCYKAoAAAAm7Jmn 9q8mWZTExqvyroLBMDlvVgEAMAaKAgAAgBKYO7Lw7SS/JokNZlcBAMBNdZOkOHqonf7aTJJ2f9i/ 9OQTr14WDRutKOZnkkwludzrLV+UCK4xKniNbUsynWS111u+IBEANsHfSfI3k3xRFBvn3dXk/qlk uoKvyg2GyYdryfau7xEA2Dyt73zvF9rprx1Msu2aXz/R6y2fFA8bpSjmDyaZueaX3u71lt+QDBt4 jX0lyY5r7wd7veUfSoYNvMYeTLLnml863+stvyoZADbayuLSLyb5DUlsrD1bki9PV/Nnn24nu6d9 hwDA5mkP+qutQYZbrvv1KdGwUYqjh9o3uKa2SIYNdv01tU0kbPQ9un+PATAOc0cW/rckfyqJjVXl WQWXB8nawHcIAGye9jd6x/vLZ/745SQ/SnIiyb9Jp3tCNGyU3uPHBoMMl667xl6TDBtpkOErSV5L 8laS19LpetObjdXpfn90jZ1I8qNBhstCAWAT/adJLolhAw2Tv6zwIbvnDDUGADZRa+7QghQAAABK ZmVx6b9L8t9LYmN9baaaswqS5N7ppNv2HQIAG88SAwAAoIQOL+z4lSSvSGJj2VUAAPBJdhQAlVQc PdROf2066+fGTyXpJOkmaSUZJllL0k9ypT/sX+p0p1d7jx9zsisAUCkri0s/l+RbkthYB7cnOzrV /NntKgAANoOiAKiEUTEwk2RHkrsGGW5tp3UpyZXRH1eLgUHWd0tdLQ62JNlyzT//QZJz6XQvKA4A gCpYWVw6kvWZBWzUjXA3+fq2av7ss91kdsp3CABs8PpIUQCUWVHMzyTZM8hwVzutD5O8n+R8Ot2L t/Ogf1Q0bEsym2Rn1nchnE3yXq+3fEHSAEBZrSwu3ZXkWJKHpLFxqrqroN1K9m71/QEAG0tRAJRS UczvTLI367sDTg0yfO8bveP9jfr9n372xNQjux7bneQLWd+N8Favt3xe8gBAGa380tJ/lGH+SBIb qJ08OlPNH92uAgBgoykKgFIpivnZJPtHf3liHA/vi2L+/2fv7oPjuO87z79negYgQIIgBD6ABGmS pk1ywCMjxw7lza4le1exsjknjuPIzp6SkZSyM9xd20rt5Y7Zq1zZe7dVF21yydFOVcw4F5Edayt2 XE68d/HFKaYqytqusxM/JApnFEX2SCZB8UQhIAnxAQRm+v7oBgXRIAmAA6B75v2qQkkgKaLn+2vN Q3/69/32A5uTb0+5w0CSJKWRLYhab/sqGMrgBXd3FUiSpFYzKJCUCk8c390d5IJhYBVxQHBhuY8h 2cWwFZg4OX7izOOPDU+5MpIkKS3qlepdQBXYZDVaxF0FkiRJgEGBpBWWzA4YAgaBswSFsZUcMpwc z0ZgA3COoPCSQ48lSVJa1CvVdwN/bCVax10FkiRJBgWSVlAYlgaBLcDFJtHpVs4guFPJDIMtxMOP T5fLtfOumCRJSoN6pfpp4CEr0apPxXB3L3Tns3fo7iqQJEkte0tkUCBpuYVhaTWwDWgSzwS44rFK kiTNjy2IWm99F+zqzt5xu6tAkiS1ikGBpGWT5bv007z7QZIkdZ76oer7iPiMlWjVJ2N3FUiSpA5/ O2RQIGmptUvf/7TNU5AkSZ2tXql+HniPlWjRh+MCHOzJ3nG7q0CSJLXkvZBBgaSlFIaldcBWYOLk +Ikzjz82PJX1x/TE8d3dQS4YBlYBo+Vy7YIrLUmSlpstiFpvby/0B9k7bncVSJKkO2VQIGlJhGGp h7i3f564t/+lNnyMfcljvEYcGDi/QJIkLav6oeo7ifiSlWiRPNyzOoOHnYvnLBTyLqEkSVocgwJJ LXUs3BvkyW0F1gJnyuXaWLs/5jAsbQCGgPEm0YvOL5AkScupXqkeBX7BSrTG9lUwlMG7891VIEmS 7oRBgaSWSPr3D5JcMCconOmk/v1JQLIZGADOlsu1c54VkiRpOdQr1TXAXwN7rEYrPiXDPWuyeegb u91VIEmSFvkWyKBA0p2a3YKnETVOPfrws5MdXIseYBjoIm65NOEZIkmSllr9UPUgEV8BClbjzq3v gl3d2TtudxVIkqTFMiiQtGheFL9lbfqT2lxtRI3RTg5PJEnS8qhXqh8FPmYlWvFJGe7uhe4M3p3v rgJJkrSotz8GBZIW6sY2OwSFsU5qMzRfN7RjGiMonLVOkiRpqRw+Mlo8VL3wZeCg1WjBh+UCHOzJ 3nF352Gw2/WTJEkLfO9jUCBpIWYN7j3fJDrj4N7b68QBz5IkaWXUK9U9wLeBVVbjzmV1sLG7CiRJ 0kIZFEial2QOwTDQJG4zdMWqLLiGPcSzHPJJDS9ZFUmS1Gr1SvVDwCesRAvk4Z7V2TtsdxVIkqSF MiiQdEtPHN/dHeSCYeK70kbL5doFq3JnwrC0DtgKTJwcP3Hm8ceGp6yKJElqpXql+qfAA1bizmV1 sPGGLigGrp8kSZofgwJJc0r66w8Bg8A5gsJL9tdveX03AhusryRJarV6pboZ+BawyWrc6afmbA42 zudgyAZUkiRpvm95DAok3SgMS4PAFuBik+i0cwiWzuEjo8V9A/dvAfqA0+Vy7bxVkSRJrVA/VH0n EV+yEi344JzRwcbritBbcP0kSdI83u8YFEiaEYal1cQ99MEe+itVe2dASJKklqlXqr8J/KKVuHN7 e6E/Y6183FUgSZLmy6BAkne1p4i7OSRJUqvf5x2qXvgGsN9q3KGMDjbuK0Bf0eWTJEm3ZlAgdTD7 5Kd6XbYAA8BZgsKY6yJJkharXqnuAb4NeG/5HcriYON8Lj7uQt71kyRJN2dQIHWoMCytA7YCl0+O nzj1+GPDU1YlXZ44vrs7yAXbgC7idkQTVkWSJC1GvVL9APApK3Gnn6CzOdjYXQWSJOm2b3MMCqTO EoalHuJe+Hlg1IvPmVizvmTNrjWixqlHH3520qpIkqSFqleqnwYeshJ3+CE6o4ONN3a7q0CSJN3i PY5BgdQZjoV7gzy5rcBa4Ey5XBuzKtmRtCMaBIaA8SbRi84vkCRJC1GvVNcAfw3ssRp3ZvsqGMrY HfrdeRjsdu0kSdLcDAqkNucF5vaSBD5bgHXA2XK5ds6qSJKk+apXqgeAr+G8gjv8JJ3NFkTritBb cPkkSdIcb28MCqT2Zcuatl5bW0hJkqRFcV5Biz5MZ7AFUT4HQ0ZEkiRprvc2BgVS+3EIbucIw1I/ MAxcbUSNUcMgSZI0H84raI29vdAfZOuYHWwsSZLmYlAgtZGkzdBGYANwlqAwVn7o6aaV6ax1tx2R JEm6HecVtOoTNdyzJnuH7WBjSZL0fW9rDAqk9pBcLH49QJOo7hyCznP4yGhx38D9O4FJgsIpQyJJ knQrzitojfVdsCtjQ4IdbCxJkm7kPQRSu2hMbwOaBIXvGhJ0pscfG54iKDwHFGlMD1sRSZJ0KzuP jvwt8GErcWdevgYXMvbue7IJU35ikCRJsxgUSG0g6VO/mqDwvHeRd7byQ083CQrfBfqTYdaSJEk3 tfPoyO8Cv2Ml7swzV7N3zGNTrpskSXqVQYHUHjYDtpoRkIQFcDo5LyRJkm7pkyP9HwK+biXuQBO+ M5mxQ45gwrBAkiQlDAqkjAvDUg+QL5drE1ZDM8rl2nmg+4nju+0+K0mSbunxx4angPcD563G4mWx BdGlBkx7q5EkScKgYNHCJ/fnnzi+u/tYuDewGloqh4+MFg8fGS3e5o+tAS5aLc3hYpAL1rTgHJMk SW1u59GR58nxfmDaaixe1loQNSO44K4CSZIEFCzBwoVhqY/G9I4gF3Ql3080ib7jAFm18BzrAXZB qTv+nksnx098J7nb60bdwKRV0xwmgTlDgCeO7+4OcsEuKPUk59gVoF4u165YNkmSOtPOT478Wb1S /Y/Ax6zGIiUtiHZlaE/nZBMuT0OvVwckSepo7ihYnH6ga9b3fXlyqyyLWmgNcQAwY/W+gft7b/Jn c/FHEun7NG72PJ/sNOiZ9Us9yXknSZI62M6jI/8B+CMrsXhZbEF00X0kkiR1PIOCxQgKZ4BRYDz5 eq5crl2yMGrhOTYGfG/WOfZ8uVy7cJM/3eAmd42r4xW5SYhULtfGgOdnnWPfS847SZKkMvD3lmHx stiCyMHGkiR1NjcXLuZd80NPN4GzVkJLfI6dS75u5zJwl1XTHNYAL970PIvDAsMBSZL0GjuPjrxS r1TfDfy/wDorsghN+PoVONiTnUOemIaeAAreTihJUkfyLYCU+c8g0USTaG345H7/f9Z1x8K9QZOo l6DgbidJkrRgO4+O/D3wiJVYvGgazmbsLv2Xr7lukiR1KncUSBn3SPmZRhiWxmlMb8SdLkrkyW0G Xk52p1wXPrk/T2O6O3n+D5IviFtYNYDpJtE1h7NLkqSdR0e+UK9UP4bDjRfthUkYCKA7I7f0zLQg 6rOxqSRJHSe3c/+IVZAy7vCR0eK+gfv3At91XobCsNQH7GgSVZNB633EbYh6mkRBntxV4BpxMDAT JOSJQ4MuXp15cQV4BZjwvJIkqXPVK9XPA++xEov80F3IVguifA7Wd9mCSJKkjnvPYlAgtYeZi8MY FnT8edAk2pUndxFYDUwBF4GJJtHl+e4UOBbuDfLkeolDhrXE4cFF4GXPL0mSOku9Ul0DfBXYbzUW Z/sqGMrQXfrdeRjsdt0kSeokBgVSG5kVFpwjKLx0Y9sZtfHaxy2FdhAPHLwGvHxy/MTY448Nt6Qz bhIc3AUMJr90jqAw7jkmSVJnqFeqO4iHG2+yGov55A1392anBRFAX8EWRJIkddTbFYMCqb0kbYi2 AauAU+VybcKqtLcwLG0FNhLvHjhVLtfOL/HP60suEnQBZ5b650mSpHSoV6r3ASdw1t3i5OGe1Rk6 XFsQSZLUUQwKpDaVXMzdRnx3+Wi5XLtiVdpujdc1iXbkyeWJA4JzK3CODSffnrIlkSRJ7a9eqX4I +ISVWJz1XbArQy19bEEkSVLnMCiQ2ljSjmYQGALGm0QvzrdHvdLrieO7u4NcsIt418hYuVx7YUXP s7A0CGwBLp4cP3GmVe2OJElSOtUr1d8EftFKLM7eXugPsnO864rQ6x4SSZLankGB1AGS/vKbgQHg 7HLfea7WSIKf1wP9wKWT4ye+k5aL8smxDREl2xbDAAAgAElEQVTPMHBGhiRJbf7e8r6vfP5PgAes xmI+hWdrXoEtiCRJ6pC3KAYFUucIw1IPcauYAnE7IucXZGfthojv2p8Cnk/r2iW7HYaJdzuMlsu1 C66eJEntp16prgG+Cuy3Gov4IF6Agz3ZOV5bEEmS1AHvTwwKpM4ThqV+4sDgaiNqjD768LOTViW1 a9UH7ACKrMAcgjs87mGgmRy3MzIkSWoz9Up1D/AUsMlqLNz2VTBUzM7x2oJIkqT2ZlAgdaikVcxG YAMwRlA4a6uY9EjuzN8J9ALnCQrPZ3F9wrC0gXhGxvkm0RlnZEiS1F7qh6oHiXiKeDehFvRp3BZE kiQpRW9NDAqkzpbML9gKrAXOlMu1MauycpIAZxtxr//LjahRz/qOjxtnZBAUxgylJElqH/VK9WeB 37cSi5CHe1Zn53BtQSRJUvsyKJAEXJ9fsC3+uMKpcrl2yaos+xpsALY1iZp5cvV26++f7JLYBnQl 55gzMiRJahP1SvUw8KtWYuHWd8GuDF187ytAX9F1kySp3RgUSHqNMCytA7YCEyfHT5x5/LHhKauy 5DVfDbyeeA7BmXK5drbNH28fcSh1rRE1TjkjQ5Kk9lCvVD8NPGQlFi5r8wo2dtuCSJKkdmNQIOn7 3DC/4BxB4SVbxbRe0pLnjcBq4AJB4budUufkHBsknl8w3iR60fkFkiRl2+Ejo8VD1Qv/F/CA1Vjo J/PszSsYciqFJEnt9XbEoEDSrT7s7Ru4fxvxQN3T5XLtvFVpjTAsbSMOYq4C9XK5dqUT6+CMDEmS 2ku9Ul0D/Dlw0GosUMbmFdiCSJKk9mJQIOm2ktY424AmcW/5K1Zl0bUcbBJtiz8L5p43fLleF2dk SJLUJuqV6l3AV4E9VmOBH9ALcLAnO8e7oQuKgesmSVJbvA8xKJA0X2FYGgS2ABebRKdtFbOg2vUA u4gH+b5ULtdOW5U56zQzI+PyyfETp5yRIUlSNtUr1T3AU8Amq7EwWZpXkM/Fw5idVyBJUvYZFEha kKS3/BZgADhLUBhzfsHNJa11dgL9wEST6DsGLPM6x5yRIUlSxtUPVQ8S8RRgN/sFfUqHvT3Qn5E7 9bvzMNjtskmSlPm3IAYFkhbjieO7u4NcsI34DvlT5XJtwqq8VhiWtgIbgSngu7bTWZhkRsYWoA9n ZEiSlEn1SvXdwOeAgtVYyCf1bA03dl6BJElt8PbDoEDSnQjDUh9xb/lrjahx6tGHn520JqV1TaId eXIz/fbPeabcUT1nZmSA8wskScqceqX6IeATVmKBH9YzNq9gY7ctiCRJyvR7D4MCSXcqaRUzCAwB 402iFzuxvU6yy2IX8fb6sXK59oJnRwvPM2dkSJKUWfVK9VeBw1ZiYdZ3wa6MtPXJ52DIJlOSJGWW QYGklkn68W8B1gFnO+VO+iQo2UE8t+HSyfET33EI75LWeggYxPkFkiRlSr1S/TTwkJVYmCwNN3Ze gSRJ2WVQIKnlwrDUQ9wqJg+MtvP8gjAsDRHf5T4FPO+shuWR7N4YJt69MVou1y5YFUmS0u1YuDe4 7yuf/0PgPVZjIZ/aszXceF0Rep1IIUlS9t5yGBRIWiphWOoHhoGrjagx2k7zC5LZDDuAInCmXK6d dcVXbB2GgSbx/IIrVkWSpPQ6fGS0eKh64QRwr9VYgDzc3ZON4cb5XNwyyXkFkiRli0GBpCWVtIrZ CGwAxggKZ7PcKubwkdHivoH7dwGrgXGCwvO2vknBeRaWNhDPyDjfJDrj/AJJktKrXqmuAf4cOGg1 FvDhPUPDjZ1XIElSBt9rGBRIWg7J/IKtwFriO/DHsnT8SeCxjbg3/tVG1PhOO+2QaKNzbDPxrIiz BIUxQxxJktKpXqneBfwFsN9qzF+Whhv3FaCv6JpJkpQVBgWSllUYllYTzy+AuFXMpQwc8wZgW5Oo mSdXtx9+6terh7gdUVdyjjk3QpKkFKpXqpuBrxK3c9Q8ZWm4sfMKJEnKDoMCSSsiDEvrgK3AxMnx E2cef2x4KoXHuBp4PfEcgrPlcu2MK5epc6yPOJRquxkZkiS1i3qlugd4CthkNeb7KT47w42dVyBJ UobeYhgUSFopN8wvOEdQeCkNrWKSFja7gD7gAkHhu7awyfQ5Nkg8v2CcoHDGtZQkKV3qleoB4rBg ndWY7yd5uLs3O8ONnVcgSVIG3l4YFEhaaU8c390d5IJhoBc4XS7Xzq/UsYRhaRtxcHEVqJfLtSuu UPZlfUaGJEntrn6oepCIpwAvKc9XHu5ZnY1D7c7DYLdLJklSmhkUSEqNpFXMMNAERpdzfkEYljY0 iYbjz1y5U15IbttzrIe4HVGejMzIkCSpU9QPVd9JxBcwLJj/B/oCHOzJxrE63FiSpJS/rzAokJQ2 s+YXXANeXMphtMnP2kY8h+Clcrl22hXoqHNsokl0+pHyMw2rIknSykvCgj8BHIE7T+u7YFdG7tbf 0AXFwDWTJCmNDAokpVZyMXeI+CL+GDDeilZAyZDigeSrCFx0DkEHnl/x/IItwLpG1PgHhx1LkpQO 9Ur13cDnMCyYt+2rYCgDd+s73FiSpPQyKJCUekm7mAHiAXcBcAmYAK6eHD9x9fHHhqdu9t8ePjJa 3Ddw/yriLex9wGpgCngl+fv+v3K5ds4qd/T5NQhsbhLV3FkgSVI61A9V30fEkxgWzPOTPeztgf4M 3K3vcGNJklL6dsKgQFKWJBf+VwNriC/+r2oSFfLkGkBEPN8gD+SaREGe3DTxYOKrwCtNoolHys80 wrC0HZgql2tnrKrCsDQE9JbLte9aDUmS0qFeqX6AHJ8ishbz+3QPd/fGg4PTznkFkiSl8K2EQYGk dnAs3BsARFGzkMvlp/NBMbpZK6Fkh8IugkLVdkOC622I9gIvOOBYkqT0qFeqHwA+ZSXmKQ939xgW SJKkhTMokNRxwrC0jXg3wVmroVnnxQbiXQUvWA1JktLDsGCBH/ILcLAnG8fqcGNJktLDEUKSOlFf I2qMWwbNdnL8xHniORaSJClFdh4d+V3gg1ZifqJp+PqVbBzr2BRMu79XkqRUyO3cPzLTm3lD0s/7 MjBq6wW1UnKn7oYmUVee3NXkHJuwMmrhOTYIbJp1jp0tl2vn5/qzx8K9dz9SfubbVk1znRv5oPi3 c7WkCsNSP/HQ41V5cteAcw7CliRp+dQr1Q8Bn7AS87O+C3Z1p/84HW4sSVJKXpMPHxktAsNAV55c QHw35SZLo1YJn9yfB14H9CTn2Gpgs5VRKzWJtt1wjm29xfkozf2iSK7RbEzlbvLbw8Dq5BzrAbZZ MUmSls/OoyO/BXzYSszPy9fgO5MZeB8fwdik6yVJ0krLP/7Y8BTwPeASMAlcAF60NGqV5M7c52ed YxPAqJVRS5/MyNWTc+xaco69cIvzUZr7gypRkA+K0U1++1Rybl1LzrXvWjFJkpZXEhbYhmieXr4G Z6fSf5yTTZiYcr0kSVpJDjOW1HHCsDQC1Mvl2hWroRlPHN/dHeSCN5bLtb+zGpIkpVu9Uv0AOT5F ZC1u/6kf9vZAfwaGBvcVoK/okkmStBJswSGpE10E+i2DZgtywVriXXWSJCnldh4d+V0ifg6Ythq3 EcEzV+BCI/2HOjENUw2XTJKklWBQIKnjNKLGOWCD8wo0IzkXNgEvWw1JkrJh59GRTwOPYlhwe0lY MJmBJpxjUzBts1BJkpadF8kkdZxHH352ErhIY3rYagiAxvQWYMJ2VJIkZUsSFvw0hgW3F8G3MxAW NKN4toIkSVpeBgWSOlNQOAX0hWFpyGJ0tjAsbQDWNolOWw1JkrJn59GRL5DjvwWuWo3baGYnLBib dLkkSVpODjOW1LGOhXuDPLk3AleaRKcfKT9jR9TOW/+twOqT4yf+4fHHhqesiiRJ2VU/VH0nEV8A VlmN28jDPavTf5jdeRjsdrkkSVoOBgWSOlr45P48jekhYBA4S1AYKz/0tF1R233d410EQ8A4QeGM ay5JUnuoH6oeJOJLwDqrcZuLAQU42JP+4+wrQF/R9ZIkacnfGxgUSBI8cXx3d5ALtgFdwKlyuTZh VdpPGJb6gGGgmayzMwkkSWoz9Ur1APBnwCarcZsLAoYFkiRp5n2BQYEkvSq5kLwNuNaIGqeSwcfK uCQIGiZuRTBaLtcuWBVJktpXvVLdA/wpsMNq3Nr6LtiVgfY+64rQW3C9JElaKgYFknSDpB3RILam aZe1nGktdY6g8JJrKUlSZ6hXqjuIw4I9VuPWshIWbOiCYuB6SZK0FAwKJOkmZg27XQucKZdrY1Yl O8KwNAhsAS46rFqSpM5Ur1Q3A18C9luNW8tCWJDPxcdZyLtekiS1mkGBJN1GGJZ6iNsR5Yn72l+y Kqler9XJeuF6SZKkeqV6F/BHwL1W49YMCyRJ6lwGBZI0T2FYWgdsBS6fHD9x6vHHhqesSnocPjJa 3Ddw/xagDzhdLtfOWxVJkgRQr1TXACHwHqtxa1kJC4ZWuVaSJLWSQYEkLUDS834jsAF73rsmkiQp Mw4fGS0eql54AnjIatza9lUwVEz3MRoWSJLUWgYFkrTID5revb7y3OUhSZIWql6p/ipw2ErcWhbC gu48DHa7VpIktYJBgSTdgVn98JvAqP3wl63uzo2QJEmLVq9UP0SOTxBZi1sxLJAkqXMYFEhSC4Rh aRDYAlxsEp1+pPxMw6q03rFwb5AntxVYC5wpl2tjVkWSJC1G/VD1fUQcB2xgcwuGBZIkdQaDAklq kaRX/hAwiL3yl6K2g8AQMN4ketEwRpIk3al6pXof8MfAOqtxc1kIC/oK0Fd0rSRJWiyDAklqsSeO 7+4OcsEw8d1po+Vy7YJVWbwwLPURtxm61ogapx59+NlJqyJJklqlXqkeAL4A7LAaN2dYIElSezMo kKQlklzgHiaeX3CqXK5dsSrzlwQu24CupH4TVkWSJC2FeqW6GfgSsN9q3JxhgSRJ7cugQJKWWBiW NhC3zDnfJDpjy5xbS+YQbAYGgLMEhTFbOEmSpKVWr1TXAJ8DHrAaN2dYIElSezIokKRl4MXv+TFU kSRJK+nwkdHioeqF3wJ+wWrc3Pou2JXy4cGGBZIkLYxBgSQtozAs9RC3I7KdzmvrYpsmSZKUGvVK 9TDwq1bi5gwLJElqLwYFkrQCZg3ovdqIGqOdOqDXwc+SJCmt6oeq7yPiePI+RXPIQliwrgi9BddK kqTbMSiQpBUSPrk/T2N6kLjVzjhB4UyntCNKHvsQMAicIyi8ZCsmSZKUNvVD1YNE/Bdgk9WYm2GB JEntwaBAklZYMr9gK7AWOFMu18ba+fGGYWkQ2AJcPDl+4szjjw1PeRZIkqS0qleqO4A/BfZYjbkZ FkiSlH0GBZKUEsn8gm1AnrhP/6U2e3yrk8dHOz4+SZLUvuqV6hrgc8ADVmNuuQIc7En3MRoWSJJ0 i9dygwJJSpcwLK0DtgIT7XDH/eEjo8V9A/dvId4xcapcrp13lSVJUtYcC/cG933l878O/KLVmJth gSRJGX4dNyiQpPRJevhvBDaQ0R7+7fAYJEmSblSvVD8A/Dbg5ea55OHuHujOp/cQ+wrQV3SpJEma zaBAklJs1t34fcDprNyNH4alfuI2Q5cbUWP00YefnXQ1JUlSu6hXqvcBn8Ehx3MzLJAkKXMMCiQp A2b1928St++5ktLjnD1nYbRcrk24epIkqR0lQ47/C7DfaszBsECSpEwxKJCkDAnD0iCwBbjYJDr9 SPmZRhqO61i4N8iT2wKsA86Wy7VzrpYkSWp3yZDjEHiP1ZhDDu7uNSyQJCkTL9sGBZKULUnv/y3A AHCWoDC2Ur3/k2MZBIaA8SbRi2kJLyRJkpZLvVL9KPAxKzGHHOztgf4gvYdoWCBJkkGBJGXWE8d3 dwe5YBhYBZxZ7vkFyRyCYeBaI2qccg6BJEnqZPVK9d3AMeIdlpotB9u7YSjFF+MNCyRJHf9ybVAg SdkWhqU+4gv2EO8wuLiUOwzCsLSOeAcBOIdAkiTpunqlugf4ArDHany/9V2wqzu9x9edh8Fu10mS 1JkMCiSpTSSBwWagGxgDxls19DgZUjwA3AVcA140IJAkSfp+zi24NcMCSZLSyaBAktpM0pJokHjb ex6YAF5pRI1XgkL31O12G4RP7s83pieLQS5YA/QC/UATON+IGmO2GJIkSbq9eqX6UXJ8jMha3ChX gIM96T0+wwJJUke+PhsUSFL7SkKDtcQX/Fc3ibry5K4B08QX/2dCg3zyVZj1Zy4BlxtR46LhgCRJ 0sLVD1XfSUQIbLIaN8jD3T3xRflUHl4u3v1QyLtUkqTOYFAgSR3m8JHR4r6B+7t4NRyAJDQ4OX7i 2r71P9pYyhkHkiRJnaReqe4APgMctBo3MCyQJCk1DAokSZIkSVpCh4+MFg9VL/wn4Betxg1ysLcH +oN0Hp5hgSSpY16SDQokSZIkSVp69UPV9xFxlHiWlGbkYHs3DBXTeXj5HAwWoRi4VJKkNn45NihY uGPh3iBPbjNxz+8mMF4u18asjFolfHJ/nsb0RmBt8kvj5XLtnJXREp5jFwkKL9lySJIkaWnVK9U9 wB8C+63Ga63vgl0pHiK8rgi9BddJktSe3Dy3qKLlNhMPo+oD+oEdYVhabWXUMvEF3OHkHOsDXheG pX4LoxaeYwM3nGPDNKYHLYwkSdLS2nl05O+BHwaetBqv9fI1+PqV9B7f+SmYmHKdJEntyaBgccaB K6/5PihcsSxqoQvApVnfTzSJXrEsapWT4ycu3nCOXWpEjYtWRpIkaentPDryys6jIz8LfBC4akVe FU3D1y7BZEr3uU5MGxZIktqTrYfuQPjk/jyArTrkOSbPMUmSJC1GvVI9AHwW2GM1Zkn5kOPuPAx2 u0ySpDZ66TUokCRJkiRp5dQr1TXA/w78gtWYJeVDjrvz0F+Egr0aJEltIBjYtMEqSJIkSZK0Qga+ seHawDc2/N/nf+hcDfgRYJVViV2YhkngrhQOEW5EcKUJq/KQz7lWkqRsM/eWJEmSJCkFdn5y5LPA m4CvW41XzQw5TuPcgmYUH99Uw3WSJGWbQYEkSZIkSSmx8+jI858c6f9nwON4l/p10TR8O8Vhwblr DjmWJGWbMwokSZIkSUqh+qHqO4kIgU1WI5HyuQV9BegrukySpOxxR4EkSZIkSSm085MjfwaMAF+y GokIXrgK35lM5+FNTMPYpMskScoehxlLkiRJkpRSA9/YcGXgGxs+ff4t58aAfw4UrApcbsCZJqwP oJCyFk2NCC41HHIsScoWdxRIkiRJkpRyO4+O/BZwNw46vi6ahm9fhgspHCTskGNJUtYYFEiSJEmS lAE7j478fTLo+GPAtBUBInjmCpxN4SBhhxxLkrLEYcaSJEmSJGVM/VD1YDLoeI/ViOUKcLAnncfW nYfBbtdIkpRe7iiQJEmSJCljdn5y5OvAW4DfsRqxaBq+dgkmm+k7tskmnL0K003XSZKUTu4okCRJ kiQpw+qHqu9MdhdsshpADrZ3w1AxfYeWz8FgEYqByyRJStlrlCWQJEmSJCm7dn5y5M+AEeCPrAYQ wQtX4etX0ndozi2QJKWVOwokSZIkSWoT9UPV9xHxcdxdEMvD3T3xjIC0cW6BJClNgoFNG6yCJEmS JEltYOCvN5w8/5ZzTwKvB0odX5AIzk5DIQdrUtbupxHBpQasysctiSRJWknuKJAkSZIkqQ25u+C1 cgU42JO+48rnYG0BeguukSRp5bijQJIkSZKkNjRrd8EQcKDjC9KE0SnoC+K7+NMiAq4243/vdsix JGmFuKNAkiRJkqQ2V69U3w0cxd0FAKzvgl0pnA+Qz8XHVsi7RpKkZX4NsgSSJEmSJLW3nUdHvgC8 AfgdqwEvX4OvXYLJZrqOqxnFx3Z52jWSJC0vdxRIkiRJktRB6pXqfcS7C/Z0fDFysL0bhorpO7S+ AvQVPV8lScvDHQWSJEmSJHWQnUdHnvrkSP9+4GPA1Y4uRgQvXIWvX0nf7oKJaTh7FaabnrOSpKXn jgJJkiRJkjpUvVLdQ9yO6N6OL0ZKdxfkc7C2AL0Fz1dJ0hK+DBoUSJIkSZLU2eqV6s8Cv47DjskV 4GBP+o6rOw+D3Z6rkqSlEQxs2mAVJEmSJEnqYAPf2PC3599y7veAAeDNHV2MJoxOQ18Aq1LUsLkR waUGdOcgsJG0JKnF3FEgSZIkSZKuc9jxq9Z3wa4U3sXvoGNJUquZQUuSJEmSpOscdvyql6/B1y7B hUa6jstBx5KkVnNHgSRJkiRJmlO9Ut0B/Abwnk6vhbsLJEntzKBAkiRJkiTdUv1Q9Z1E/Dqwv6ML kYe9q6A/SNdhdeehvwgF+0ZIkhaoJ+C5t2+/9zcMCiRJkiRJ0m0dPjJaPFS98O+AXwbWdXIt0ri7 IJ+DtQXoLXiuSpLmZeoH1vN/fPQd0TFwR4EkSZIkSVqAeqW6Gfg14KGOLkQO9va4u0CSlD2be/nC L//IZ39zW9eD566/rBkUSJIkSZKkhaofqh4k4nfp8HZEuQL8QHd8gT4t3F0gSZpLT8BzP7n3/f/h wZE/+Ob3vZ4ZFEiSJEmSpMUIn9yff9tffubfAL8CbOrYQuRgezcMpWyosLsLJEkAhRxj+wb5vZk2 Q3O+lBkUSJIkSZKkO1GvVO8C/mfgELCqYwuRh7t70re7YHUAfUXPU0nqQFOvX0v46w/UjsLeS7f6 gwYFkiRJkiSpJeqV6g7gP9LJ8wtysL6YvmHH7i6QpM4y1xyCW758GRRIkiRJkqRWSuYXfAI42LFF yMPeVekaduzuAklqf2uKfOvHd7//N+aaQ3ArBgWSJEmSJGlJ1A9V30fE/wLs6dQapHXY8foudxdI UjvpCXjuni0Hjn7krX/zxUW9XhkUSJIkSZKkpXL4yGjxUPXCvwN+GVjXkUVIaTuivoK7CyQp6+Yz qHheL1UGBZIkSZIkaak58JjUtiNaW4DegueoJGXM1OvXEj72js/+/nznENyKQYEkSZIkSVo2ycDj fw/8PNCRl6fT2I7IYceSlB2be/nCB+75td9+0/pfOtWy1yaDAkmSJEmStNzqleoe4H8D3tORBUhh OyKHHUtSug128xc/vf/Dv/XAzo/XWv6ytHP/CGFY6gH6iZP8KwSF8fJDTzctvVrlieO7u4NcMAAU gasEhTHPMbXS4SOjxX0D9w/OnGNNon98pPxMw8qoVY6Fe4M8ubuIt8lPnRw/Mfb4Y8NTVkaSJOnO 1A9VDyYDjx/oyALkYHs3DKXo4nw+B4NFKAaen5KUBmuKfOvHd7//Nx4c+YNvLtXPKBw+MlqEUil+ aUo0ptcAL7gEaoXwyf35ZmOqBASzzrF+4Dmro1bZN3D/HuD6vTh5coPAM1ZGLfuwRO6NwOpZ59wG qD1tZSRJku7Mzk+OfB340Xqleh/wn4CDHVWACF64Ci9cS8/8gmYE567ZjkiSVtqaIt9627Z7P/XB Nz/11FL/rPy+9T/aAC6/9iXqNd9Ld6T80NPNPLkbz6lXrIxabOKG7y9ZErXYK55jkiRJS2fn0ZGn dh4duQf4SaDzbshowjOX4etXYDIl++8nm/DSJEy4j1aSllVPwHNv33bgfwh/MvrZ5QgJYNaMgqT9 UKFJdNl2HVoKM+fYyfETV23XoaWQtLjqakSNa48+/OykFZHnmCRJUkY/Pz65P/+2//qZnybiV4D9 HVeAZH7B1mJ6Bh7nc7C2AL0Fz09JWio9Ac/ds+XA0Y+89W++uMw/etphxpIkSZIkKZUMDNI3v8B2 RJLUeisYEEDcXWjCoECSJEmSJKVaxwcGedjela7AoK8APYGBgSTdiRQEBFeAKZjVekhqlWPh3iBP rhdYlXwVgUL81oY80Ey+poFryQl5laBwpfzQ000rKEmSJEmai4FBegYeQ9yOaHUAfUXPTUlaiBUO CKaBCyQBwQyDArXmzVpY6gP6gbVNoq48uVeAq8QhwDWScKARNZpBLpgJDApAF3GYsLpJtCoZenyx ETXG7f8tSZIkSbqZeqX6buB/pQMDg1wB9nSlKzBwfoEk3V4KAoKZa7bf/9piUKDFOnxktLhv4P5B YH1yop0HLpTLtSuL+fvCJ/fnaUyvJg4c1iV/5xhBYcydBpIkSZKkuSSBwf8EHOy0x54rwA90p2vg 8WARioHnpSTNtqbIt9627d5PffDNTz21Aj/+lgHB9dcUgwIt1BPHd3cHuWAIWAuMN6LGuaW4+z/Z pbABWA2cIyi8ZGAgSZIkSZpLvVK9D/j3wAOd9tjTFhg48FiSYoPd/MU73/D+//PBkT/45gr8+HkF BNdfSwwKNF/J7IHNwADLeOH+hmDibLlcO+dqSJIkSZLmUq9UDwD/I/B+4pa3nSEH64uwtWhgIEkr bGpzL1/8iZEP//4DOz9eW4GfP03cDv4yEM37ZcSgQPMRhqUNwBAw3iR68ZHyM40VOIYeYJh4rsGp crk24cpIkiRJkuZSr1R3EO8wKBPPxusMKQwM+grQExgYSGp7U5t7+eIH7vm1337T+l86tQI/f1EB wfWXD4MC3UrS/mcb8UDi0cXOH2jxMfUTBwZXG1Fj1KHHkiRJkqSbqVeqm4FfAH6ReB5eZ0hpYNBX 9JyU1F4KOcZe18cfP/aOz/7+tq4HV6ITyh0FBNdfNgwKNJek3c8w8V0Xo+Vy7UKaji8ZfDxIvMth jKBw1vkFkiRJkqSbqVeqa4BHgP8e2NExDzxlgUE+B6sDAwNJ2VfIMbZvkN/76Dtqfwh7L63AIbQk ILj+cmFQoNmSC/BDwCAZGCCczE3YSjy/4Ey5XBtzFSVJkiRJt/oced9XP/9eIv4tcG/HPPAc5IL0 DD02MJCUVWuKfOstQwf+80fe+jdfXKFDaGlAcP1lwqBAM8KwNAhsAS42iU6vxByCOzj2HuIWSXni +QWXXFFJkiRJ0q3UD1UPEvEROmnwsW8QfqAAABkfSURBVIGBJC3GSg8ohjggeAWYpIUBQfJ3XTUo EGFYWk18kb1JfJH9SoYfyzpgKzBxcvzEmccfG55yhSVJkiRJtzJrjsG/BjZ1yuPOFWBPF/QHK38s BgaS0igF8wfg1YDgaov/3gi4+uWnf2ay/NDTTYOCDnb4yGhx38D9W4A+4HS5XDvfDo8raZ+0EdhA BtonSZIkSZLS4Ynju7vf/tU//jngI8D+jnngedjeBUMpuEhvYCApDXoCnrtny4GjH3nrZ55aofkD ELcWugK0+kbo1wQEM79oUNCBOuVCersGIZIkSZKkpVevVO8DHgN+nE5pS5TCwKAngELe81HSspja 3MsX377z/Z97cOQPvrmCx7FUAUETmLwxIJhhUNBhZrXmuXxy/MSpTmjN006tlSRJkiRJyytpS1QG DgE7OuJB52B9EbYW0zHHoDsP/UUDA0lLo5BjbN8gv/fz//Szf7KC7YUgDggmaO38AUiGH7/+wL5b Xgc2KOgQDvvN9rBmSZIkSdLKOhbuDe77yuffBfxrcjzQ8ss4aWRgIKmNDXbzFweH7/3sB9/81FMr eBjTxLsHLrNCAcH1p3yDgvZ/I5MntxVYC5wpl2tjnVyPpO3SFmAAOEtQGHN+gSRJkiRpIeqV6g7i HQaP0CHDj9M0+Lg7H7ck6i14LkpamJnhxA+9+df+8E3rf+nUCh7KUg0oBrgGTM43ILj+PG9Q0J6S C+KDwBAwTlA44wXxVz1xfHd3kAuGgVXEOywmrIokSZIkaSEOHxktHqpdeA8R/xa4tyMedMrmGKwt GBhIur01Rb71lqED//kjb/2bL67woSzlgOKpv/z2e68stouKQUEbCsNSH3GboWuNqHHq0YefnbQq t68VMOr8AkmSJEnSYtQr1T3Ao3TKLoMUtSVy8LGkuaRs98BStRe65YDiBT2tGxS0j+Qu+W1AF94l P2837r5oEr3o/AJJkiRJ0mLMmmXwMPDjQNvf7562tkTOMZA62tRgN19JwewBWNr2QguaPzCv53KD gvZ4E5Intxn77reijluAdcDZcrl2zqpIkiRJkharXqluBt4L/AKwv+0fcIp2GTjHQOosPQHP7R7g j37+n372T7Z1PbiS1/SmiTuXTMCSjL1f1PyBeT2FGxRkWxiWNhDfCX++SXTGO+FbUtMe4nZEeeJ2 RO7MkCRJkiTdkfqh6kEi/hXwr2j31kQ5yAXp2GVgWyKpfc20FvqR3R/+fx7Y+fHaCh/OzO6BSVLc XuiWT90GBdmU9NYfTk6UU/bWX5Ia9yc1vtqIGqPOepAkSZIk3anDR0aLh6oXfgx4kHi3waq2fsB5 WF9Izy6DtQUoBp6HUoZNbe7li3cP3fullLQWusbSDCeGJdw9MBeDgoxJ5hAMJ28kRsvl2gWrsnSS +QUbgQ3AGEHhrG2dJEmSJEmtUK9U1wA/Cfws8C9o53kGyS6D1xVgqLiyh+IuAylzpga7+cr+jQf+ 5CNv/cxTsPfSCh/PZZKL+GR098CcT9MGBdmQXLAeAgaBcwSFl7xgvXyS+QVbgbXAmXK5NmZVJEmS JEmtUq9U7wL+O+KdBve29YNN2SwDdxlI6bSmyLd29XPio++o/WEKwoFp4p0Dl8nY7IF5PzUbFKRf GJYGgS3AxSbRaecQrOharCaeXwBxy6dLVkWSJEmS1Er1SnUH8H7gIdp9CHIetnfBQLCyoYG7DKR0 SNFQYlj61kIrtntgLgYFKeZF6VSvzTpgKzBxcvzEmccfG56yKpIkSZKkVqtXqnuAnyGeZ9C+oUGK WhN15+PAoLfg+Scth5lw4Cf2/9qfv2n9L51KwSEt5WDiiDh0WNHdA3M+DRsUpM/hI6PFfQP3bwH6 gNPlcu28VUmfG+YX2A5KkiRJkrSkZu00+CngYNs+0KQ10foC9K9gSyB3GUhLZ6atUMrCgaVsLTQN XPny0z/TSOv1Q4OCFPHCczYlwc42oBeDHUmSJEnSMkhCg3cBD5Lj3iW5rJUG+TgwWOl5BoYG0p2b CQdS0lYIXg0HrrE0rYWmgam0tBa6HYOClJjVyuZyI2qMPvrws5NWJXNrONMqqkncKuqKVZEkSZIk LbV6pbqZuDXRu4B/AbRn05yUhAbdeejKGxpI8zA12M1XtvbxVykLB5Z87gAwnbbWQrdjULDCwrDU Q3xxOQ+Mlsu1CauS+TV1+LQkSZIkaUXUK9U15PgxIn4CuB/Y1JYPNAkNVro9kfMMpNcq5Bjb0MOX 9wwe+PJH3vqZp2BvGmauLvXOgdTOHVgIg4IVcizcG+TJbQHWAWfK5dqYVWm79d0MDABnCQpjtpGS JEmSJC33Z9P7vvr5NxPxU8CP0a7DkA0NpBXVE/Dc5tU8dc+29//FgyN/8M2UHJbhwAIZFCyzZA7B IDAEjDeJXvSO8/b1xPHd3UEu2AZ0EbcjcseIJEmSJGlFzJpr8C7gPmBV2z3IlAxCngkNuvK2J1Jb ut5SKEXDiGHpBxI3k5/RNuHAa54+DQqWT3LReCcw3Ygap5xD0DnCsNRH3GLqEkHhlLsLJEmSJEkr qV6priGeZ/B24F8Ce9ruQeYgF8DrCjAQrNxcA2caqB3M7BrYs/7eb3zwzUf/OkUtha4lX5MsXTiQ yZkDC37KNChYHsksgjcAZ8vl2jkr0oHnQLybZBvQQ1B41rBAkiRJkpQWyW6D+4mDg/abbWBoIC3I 7FkDb3vDzz2dsl0DSx0OTBO3FWr7cOA1T5MGBUsvuUA8Apwul2vnrUiHnw9haTsQlMu171oNSZIk SVLqPrc+uT//tv/6mbcQ8Q7i2QYHabc2RSmYa5DPweoAVuWhGHjeacVNrSnyd7v6OfHWHR/+2gM7 P15L0bEt27yBLz/9M41OvbnXoGA5XmDD0lYgVy7XTlkNJcHRXpxZIEmSJEnKgHqluoYcP0zEvwR+ GPhBoH1G9qZgt0E+B8Wcuw20rKbWFPm7jT18M2XthGCZWwp1cjjwmqdCg4KldSzcG+TJjTSJqg4t 1owwLPUDm8rl2rNWQ5IkSZKUJfVK9S7gbcRtigwOlsDMboMgB70Fzzm1xFRPwAspnDMAyxMMzOwa aPzlt997zeu0czz1GRQsrTAsrQPuss2M5jg39p8cP/HM448NT1kNSZIkSVJWzdpx8M+Bf0K7tSpK QZsiZxtoEdK8YwCWvp3QzM/ouFkDi2UmuUjJcOJeoNEkmrhFCtUH2F5Gc7m0b+D+XqhdmOs3nzi+ uzvIBWvmcY5Ji3L4yGhx38D9awFOjp+4aGglSZIkaTF2Hh15Bfiz5IvDR0aLh6oXfhh4K3AP8a6D 7A5HbsLL1+Iv4HpwsDq/fDsOJpvx18S0bYo0t0KOsf4unt7ax1+NbHr/3z448rG/T+GOgQbLFAzY Tmjh3FGwCGFY2gC87tXXi6gRRc3aow8/OznHn309cM5e9Jrj3NgKTJbLtXNz/N46YNesX4qAWrlc u2Ll1KLzrw94I5CbdY79g89VkiRJkpZCvVLdQY6DRPwT4lZF7bPrYAWCg9f8eIODTnR9t8Dr+g88 854f/JW/2tb14LkUHZ/BQAa5o6Alrwe5vLd6q8WCud96SC2Vu8m/S5IkSVJL7Tw68jzwPPBZSHYd 1C68iYiDxDsP3gLsyeSDm9lxALyQfHrP5eMZBz35pW9X1IxgMnLHQTvrCXhuXTcnN/by7Ft3fPhr D+z8eC1lhzh7xkCDpQkGoll/t8HAEnBHwSKFYWk1ceshTo6fOH+zlh1hWNoGXJ3rrnF1/Dn0euAf y+Xa+Zv8fg+wBqARNS7OtWNFuhNJe6u1ybevuGNFkiRJ0kpKhiTvJw4O9gMHgBJZv9E1F3+t5K6D mRkHQRIgGB6k1lRPwAszoUAKWwjB9+8WmGZphg83k7+7gTMGluepyqBgaYVhaRBYUy7XXrAauuHc cJixJEmSJEm3kAxKHiHiAPBDwN3EAUK22xblIBfAYH5lwoPZuw5W5aEYeK6tgKk1Rf6ur8j3MhIK NIBJliYUiIh3CjRwt8DKPS0ZFCytY+HeIE9upElUdRitZiT94YfL5dozVkOSJEmSpPlLhiWXiAOD /wbYDYwQz/rL7u4Dw4N2NdUT8EJvgdP93Xzndf0Hntmz6b56itsHLWso8Jfffm/Ta6YpeQoyKFh6 SfuhqFyunbYaCp/cn6cxvRs4e7O2Q5IkSZIkaWGuBwg59hLxg7RDgHBD26KePKzKLV+AMDs8sG3R bd0kEPg330vhLgFYnvZB08QthNwpkIWnG4OCpTezqwB4vlyuTViRzhaGpa3AqnK59pzVkCRJkiRp ad0QIOwknn/wRmA7sCmTD+qG3QcGCMunkGNsVYHvzbQMGug58FKKdwjA8uwSeE0g4C6BbDIoWCbJ 8OPXA6e8i7xDz4F4J8EWYE2T6B98wpQkSZIkaWXVK9W7yPEGInYDw8TXbvYCryPHjiW5pLqUkh0I ufzKhAjtEiDcPAxI/e6Ama+l2CEQJX+3gUCbMihYRmFY6gF2AldPjp845RDbjlr71cA2YLpJVPdJ VJIkSZKkdEt2IgwT7zzYxqtBwnZgS/Jr6zLzgFYwRJgJEOC1IQIsf5BQyDFWzDPeW+B0V8CFmSBg 89rS2TdsfMu5N63/pVMpW7nlDAOas75mfga2DOoMBgXLLLmrfCOwAThHUHjJ/9Ha+03FvoH7twB9 wGl3k0iSJEmS1D7qleoaYJgc24l4HXGYsIX4us8wsBEYAlal/sHcECTA8oUJNwYJsKgwYaqQ4+Kq At/rznOhK+BCT4GXX9d/4Jme4rpLb9n+49990/p3/WOKdwTA0gYBN4YA13++QYDAoGDFeAG5vRkI SZIkSZKkGfVK9S7iawRDxLsQNgCDyfcbgN7k+wHia0XrSONuhdyr/8wlF+9ndidAHCpAHCzA4sOF 7jxsWhXf+R/kmZh94b+vi38c6DnwUk9x3aV1PZsn4l0A7/pH2Hsh+c9XanD19A3f33jxf+bfZ/7c nYYAUfI1c/EfbggA/vLb723mg2LkNSnN639vg4KVNaslTZN4fsEVq5L5NV0HbAUmTo6fOGOLKUmS JEmStBhJwLCWHBuJ6OHVkGEVsDr55zrioGF18s/e5D/vSX6/hzh8mK0H6L7h11Yx986Hq8nXbJPA jdewJpJfuzrr9y4nX5eSf04C4z/UxyWAv3qFl4DzwPmnfvinruXJXfxnd39uHLgxYrjZxf/gNiUM FvDfNJLfa9zm92b//lwX/ecKAGb/WvMm/z77Z9349wPxnf8AXvjXUjAoSIkwLA0Sb0272CQ6bQ/7 TK5hD3HokycOfS5ZFUmSJEmSJElpZ1CQIkm7mi3E28zOEhTGTAjT71i4N8iT2wqsBc6Uy7UxqyJJ kiRJkiQpKwwKUuiJ47u7g1ywDegivjN9wqqkTxLszPQTHCconDHYkSRJkiRJkpQ1BgUpFoalPuJW NtcaUePUow8/O2lVXBtJkiRJkiRJaiWDgpS78a71JtGLzi9YOe72kCRJkiRJktRuDAoyIumDv4V4 kv3Zcrl2zqose/034/wISZIkSZIkSW3GoCBjwrDUQ9zyJg+Mekf7stR8A/GOjvNNojPu6JAkSZIk SZLUTgwKMioMS/3AMHC1ETVG7ZG/JDXuS2rcJG4zdMWqSJIkSZIkSWo3BgUZlswv2AhsAMYICmdt h3PnkjkEw8Aq4l0bF6yKJEmSJEmSpHZlUNAGkv75W4G1wJlyuTZmVRYuCV6GgEHgHEHhJYMXSZIk SZIkSe3OoKCNhGFpNfH8Aohb5VyyKvOu3SCwBbjYJDrtHAJJkiRJkiRJncKgoA2FYWkdsBWYODl+ 4szjjw1PWZWb1spwRZIkSZIkSVJHMyhoUzfML7CNzg0OHxkt7hu4fwvQB5wul2vnrYokSZIkSZKk TmRQ0OZmDebtxQviBiiSJEmSJEmSdAODgg4RhqU+YBhoErfYudKBNZhpyXS5ETVGH3342UnPDEmS JEmSJEmdzqCgw3Ti0N4wLPUQzyHIA6Plcm3CM0GSJEmSJEmSYgYFHehYuDfIk9sMDABnCQpj7dh+ J3mcW+D/b+9edqs6zzgO//ehnA+2oDSFRgQliuJEXEVzDx0grbZXwLDXwLBXkGRLuYcOLHXQOwix nFK1FSGOQww1oeLMXqsDL6Qd1JICyyTmfR7JEl4DkF+/8oCf1/dlKcnXTbN+03cfAAAAAOD7hILC +vsL3kyyLzvHEb0Wv2nf30NwIskbSbbbdJsV3pwAAAAAAHgRQgFP7i94M8nDeTe/tpfP7n+dvhYA AAAAgFdBKCDJ3v8t/Nf17QgAAAAAgN0mFPA9e+1c/yr3LQAAAAAA7BahgP9qNls5mJ0jfMZJNn6K v6E/m62cSHI6ya023dfuIQAAAAAAeH5CAc80m60sJflVkrvzbr7xUzjzv7+H4EySNjvHDN3znQIA AAAAeDFCAT+ov7/gVJKfJ9nKZPrtj3G8T38PwZkkh5J81TTrt3x3AAAAAABejlDA/+0Pf9z42QfL H55Ociyv8D6Ap+4h+NFCBQAAAADA60go4Ln19xf8MsnhJFtr26s3L10882iX/p1TbbrlcUY32nSb 7iEAAAAAABiWUMAL648COpVkKcm9JN/Nu/ntl7nHoI8Dx/u/c5zkX226LYEAAAAAAGB3CAW8tP4O g6PZ+c/9Y0m6JHf7j/tJHs27+eMvbv25XVn+ddt17XQymoyTTJPsS7I/yaE23ZFxRveT3E7yXdOs 3zFdAAAAAIDdJRQwuP4ug8NJDmQnAuzPztsB4ySTJPMkbZLHSR6lDwpturveHAAAAAAAeLWEAgAA AAAAKGxsBAAAAAAAUNf0yR/6i2nHmUwfNBcut0bD0PojiaZtuoeOGGI3fDx7bzLO6ECb7r4dYzd3 bG179eGli2cemQgAAADwOhj95bPfjDN//E6So/2zLsnVplm/aTwMZTZbeSfJ8YUdu9Y061smw4A7 djbJyYUd+7Zp1r8yGQbcsdNJ3kgy6h/daJr1qyYDAAAA7HXjtRt/miQ5svBs9NTn8FJmn54fJzn2 1I4dNxkG9vSOHTMSdmHHRv9j5wAAAAD2rHF/dMJfk1xPciPJl5lMrxkNQ+mPslpf2LGNNt0/TYYh zbv5lSSbT3ZsbXv1b6bCkNa2V/+eZKPfsc1+5wAAAAD2vNG58++bAgAAAAAAFDU2AgAAAAAAqEso AAAAAACAwoQCAAAAAAAoTCgAAAAAAIDChAIAAAAAAChMKAAAAAAAgMKEAgAAAAAAKEwoAAAAAACA woQCAAAAAAAoTCgAAAAAAIDChAIAAAAAAChMKAAAAAAAgMKEAgAAAAAAKEwoAAAAAACAwoQCAAAA AAAoTCgAAAAAAIDChAIAAAAAAChMKAAAAAAAgMKEAgAAAAAAKEwoAAAAAACAwoQCAAAAAAAoTCgA AAAAAIDChAIAAAAAAChMKAAAAAAAgMKEAgAAAAAAKEwoAAAAAACAwoQCAAAAAAAoTCgAAAAAAIDC hAIAAAAAAChMKAAAAAAAgMKEAgAAAAAAKEwoAAAAAACAwoQCAAAAAAAoTCgAAAAAAIDChAIAAAAA AChMKAAAAAAAgMKEAgAAAAAAKEwoAAAAAACAwoQCAAAAAAAoTCgAAAAAAIDCpkbw/GazlYNJziY5 1D+6mcn0WnPhcms6DOGjT97dPxlNziY50j+61aa7+rvmi7npMISPZ+9NxhmdS3Ksf3R7bXv16qWL Zx6ZDgAAAEAt3ih4MSeTHE4y6j9OZv74oLEwlMlospzk6MKOLY8zOmIyDPfDf7SU5PjCjh3/YPnD JZMBAAAAqEcoeAFr26vfJLmR5E7/8WXTrN8xGYbSpttKcn1hxzYymf7bZBjMZLqdZHNhxzYzmd40 GAAAAIB6RufOv28KAAAAAABQlDcKAAAAAACgMKEAAAAAAAAKEwoAAAAAAKAwoQAAAAAAAAoTCgAA AAAAoDChAAAAAAAAChMKAAAAAACgMKEAAAAAAAAKEwoAAAAAAKAwoQAAAAAAAAoTCgAAAAAAoDCh AAAAAAAAChMKAAAAAACgMKEAAAAAAAAKEwoAAAAAAKAwoQAAAAAAAAoTCgAAAAAAoDChAAAAAAAA ChMKAAAAAACgMKEAAAAAAAAKEwoAAAAAAKAwoQAAAAAAAAoTCgAAAAAAoDChAAAAAAAAChMKAAAA AACgMKEAAAAAAAAKEwoAAAAAAKAwoQAAAAAAAAoTCgAAAAAAoDChAAAAAAAAChMKAAAAAACgMKEA AAAAAAAKEwoAAAAAAKAwoQAAAAAAAAoTCgAAAAAAoDChAAAAAAAAChMKAAAAAACgMKEAAAAAAAAK EwoAAAAAAKAwoQAAAAAAAAqbJslstnIiyYnshIN7827+ze9/e+WB8TCU2WxlKcmpfsceJtlsmvV7 JsOAO3Y0yS+S7FvYsTsmAwAAAADPNv3ok3f3J3lr4dnhyWgySfIP42EIs0/PjzN//PbijmUnUl0x HYbSpnt7nNGk//RgkgNJPjcZAAAAAHi2cf/mwPU23bx/difJltEwlObC5TbJxsKO3Uty3WQY9IdZ RhvZeZMgSR4k2TQVAAAAAPhh/wGJpiW0yBgZMwAAAABJRU5ErkJggg== "
     id="image10"
     x="0"
     y="0" />
</svg>
